{
  "0": "",
  "5": "",
  "10": "",
  "20": "",
  "50": "",
  "": "",
  "Meta-Press.es": "",
  "meta-press.es@d12s.fr": "",
  ".": "",
  "\"": "",
  "abc": "",
  ",": "",
  ", ": "",
  "}": "",
  "New Europe": "",
  "RSS": "",
  " RSS": "",
  "ATOM": "",
  ";": "",
  "New Europe Greece": "",
  "Washingtown Post": "",
  "JSON": "",
  "the Japan News": "",
  "POST": "",
  "Mediapart.fr": "",
  "CSS": "",
  "Helsinki Times": "",
  "XPath": "",
  "CodeMirror": "",
  "Elisa de Castro Guerra": "",
  "?": "",
  ".\n\t\t": "",
  ",\n\t\t\t\t\t\t\t": "",
  "s\n\t\t\t\t": "",
  ",\n\t\t\t\t\t\t\t\t\t\t": "",
  ":\n\t\t\t\t\t\t": "",
  "⚙": "",
  "[+]": "",
  "↶": "",
  "✘": "",
  "s": "",
  "↗": "",
  " 🔗": "",
  "↻": "",
  ")": "",
  "Acoeuro.com": "",
  "List.js": "",
  "Selectr": "",
  "Bootstrap": "",
  "Gettext hTml Auto": "",
  "https://framagit.org/Siltaar/meta-press-ext/issues": "",
  "https://acoeuro.com/": "",
  "https://listjs.com/": "",
  "https://github.com/Mobius1/Selectr/wiki": "",
  "https://getbootstrap.com/": "",
  "📰": "",
  "https://www.meta-press.es/": "",
  "https://framagit.org/Siltaar/meta-press-ext/blob/master/js/sources.json": "",
  "https://framagit.org/Siltaar/meta-press-ext": "",
  "https://codemirror.net/": "",
  "http://www.yemanjalisa.net/": "",
  "https://framagit.org/Siltaar/gettext_html_auto.js": "",
  "English": "",
  "Français": "",
  "Esperanto": "",
  "{\n\t\"https://www.custom-source.eu\": {\n\t\t\"headline_url\": \"https://www.custom-source.eu\",\n\t\t\"headline_selector\": \"#custom_headline a\",\n\t\t\"search_url\": \"https://www.custom-source.eu/search/{}/feed/rss2/\",\n\t\t\"favicon_url\": \"https://www.custom-source.eu/custom/favicon.png\",\n\t\t\"extends\": \"RSS\",\n\t\t\"tags\": {\n\t\t\t\"name\": \"Custom Source\",\n\t\t\t\"lang\": \"en\",\n\t\t\t\"country\": \"be\",\n\t\t\t\"themes\": [\"general\", \"financial\"],\n\t\t\t\"tech\": [\"own search\", \"slow\"],\n\t\t\t\"source_type\": \"press\",\n\t\t\t\"result_type\": \"text\",\n\t\t\t\"scope\": \"International\",\n\t\t\t\"freq\": \"daily\"\n\t\t},\n\t\t\"positive_test_search_term\": \"quadrature du net\"\n\t}\n}": "",
  "Washington Post": "",
  "The Japan News": "",
  "Mediapart.fr/en": "",
  "Mediapart.fr/es": "",
  "SudRadio.fr": "",
  "New York Times": "",
  "Wall Street Journal": "",
  "San Francisco Chronicle": "",
  "L.A. Times": "",
  "Der Spiegel": "",
  "Rio Times Online": "",
  "Monde Diplomatique (en)": "",
  "Monde Diplomatique": "",
  "Monde Diplo (eo)": "",
  "Monde Diplo (ko)": "",
  "El Diplo": "",
  "Monde Diplo (gr)": "",
  "Tageblatt": "",
  "MondeDiplo.fi": "",
  "LMD.no": "",
  "Nedeljnik": "",
  "Russia Today": "",
  "Russia Today en Français": "",
  "Asahi Shimbun": "",
  "Hong Kong Free Press": "",
  "Global Times (cn)": "",
  "Sunday Times (South Africa)": "",
  "Libya Herald": "",
  "North Africa (MEA Risk LLC)": "",
  "Financial Tribune (Iran)": "",
  "Imphal Free Press": "",
  "The Asian Age": "",
  "B2 Bruxelles2": "",
  "NextINpact": "",
  "Haaretz": "",
  "Hamodia": "",
  "Presse Citron": "",
  "Neon Mag": "",
  "TheDailyStar (Lebanon)": "",
  "UB Post (Mongolia)": "",
  "Pakistan Observer": "",
  "Khaleej Mag": "",
  "Gulf Times": "",
  "Hürriyet Daily News": "",
  "VN Express": "",
  "Aujourd'hui la Turquie": "",
  "Toronto Star": "",
  "The Globe and Mail": "",
  "Finland Today": "",
  "Latin American Herald Tribune": "",
  "Australian Financial Review": "",
  "The Age (au)": "",
  "The Sydney Morning Herald": "",
  "Otago Daily Times": "",
  "Jamaica Observer": "",
  "Ekathimerini (en)": "",
  "Kathimerini": "",
  "openDemocracy": "",
  "Cell Press": "",
  "Nature": "",
  "Plos one": "",
  "PubMed": "",
  "Science Mag": "",
  "Science Direct (Elsevier)": "",
  "PeerCommunity Evolutionnary Biology": "",
  "PeerCommunity Ecology": "",
  "PeerCommunity Paleontology": "",
  "PeerCommunity Animal Science": "",
  "PeerCommunity Entomology": "",
  "PeerCommunity Circuit Neuroscience": "",
  "PeerCommunity Genomics": "",
  "PNAS": "",
  "Arxiv.org": "",
  "SciHub (fulltext, articles)": "",
  "El Watan": "",
  "Metro Time (be)": "",
  "Metro Time (nl)": "",
  "Journal Metro (ca)": "",
  "Revue XXI": "",
  "Le Soleil (du Sénégal)": "",
  "Medellin Herald": "",
  "L'Echo (be/fr)": "",
  "L'Echo (be/nl)": "",
  "Libération": "",
  "Le Figaro": "",
  "La Croix": "",
  "FranceInfo:": "",
  "Reuters (all editions)": "",
  "Reuters (uk)": "",
  "Reuters (jp)": "",
  "Reuters (in)": "",
  "Reuters (cn)": "",
  "Reuters (Latin America)": "",
  "Reuters (de)": "",
  "Euronews": "",
  "Euronews (fr)": "",
  "Euronews (de)": "",
  "Euronews (it)": "",
  "Euronews (es)": "",
  "Euronews (pt)": "",
  "Euronews (ru)": "",
  "Euronews (tr)": "",
  "Euronews (gr)": "",
  "Euronews (hu)": "",
  "Euronews (farsi)": "",
  "Euronews (arabic)": "",
  "Politis": "",
  "Reporterre": "",
  "Arrêt sur images": "",
  "Public Sénat (fr)": "",
  "Public Sénat (vidéo)": "",
  "Radio France International": "",
  "L'Humanité": "",
  "Sciences et Avenir": "",
  "Médias Libres": "",
  "Ici Radio-Canada": "",
  "Courrier International": "",
  "Revue S!lence": "",
  "ACRIMED": "",
  "France 3 régions": "",
  "La Red 21": "",
  "Nodal": "",
  "la Repubblica": "",
  "El País": "",
  "El País .cat": "",
  "El País Brasil": "",
  "Haïti Progès": "",
  "The Daily Telegraph": "",
  "Dawn": "",
  "Le Temps (ch)": "",
  "Le Courrier (ch)": "",
  "Le Soir (be)": "",
  "Le Dauphiné Libéré": "",
  "La Provence": "",
  "France Bleu": "",
  "France Inter": "",
  "e-sidoc Collège": "",
  "e-sidoc Collège Vidéo": "",
  "e-sidoc Collège Audio": "",
  "e-sidoc CANOPÉ Pays de la Loire": "",
  "e-sidoc CANOPÉ PdlL Vidéo": "",
  "e-sidoc CANOPÉ PdlL Audio": "",
  "La naciòn": "",
  "L'âge de faire": "",
  "ANSA": "",
  "ANSA (foto)": "",
  "ANSA (video)": "",
  "ANSA English": "",
  "ANSA English (foto)": "",
  "ANSA English (video)": "",
  "ANSA Latina": "",
  "ANSA Latina (foto)": "",
  "ANSA Latina (video)": "",
  "ANSA Brasil": "",
  "ANSA Brasil (foto)": "",
  "ANSA Brasil (video)": "",
  " (162)": "",
  " (161)": "",
  " (160)": "",
  " (159)": "",
  " (158)": "",
  " (157)": "",
  " (156)": "",
  " (155)": "",
  " (154)": "",
  " (153)": "",
  " (152)": "",
  " (151)": "",
  " (150)": "",
  " (149)": "",
  " (148)": "",
  " (147)": "",
  " (146)": "",
  " (145)": "",
  " (144)": "",
  " (143)": "",
  " (142)": "",
  " (141)": "",
  " (140)": "",
  " (139)": "",
  " (138)": "",
  " (137)": "",
  " (136)": "",
  " (135)": "",
  " (134)": "",
  " (133)": "",
  " (132)": "",
  " (131)": "",
  " (130)": "",
  " (129)": "",
  " (128)": "",
  " (127)": "",
  " (126)": "",
  " (125)": "",
  " (124)": "",
  " (123)": "",
  " (122)": "",
  " (121)": "",
  " (120)": "",
  " (119)": "",
  " (118)": "",
  " (117)": "",
  " (116)": "",
  " (115)": "",
  " (114)": "",
  " (113)": "",
  " (112)": "",
  " (111)": "",
  " (110)": "",
  " (109)": "",
  " (108)": "",
  " (107)": "",
  " (106)": "",
  " (105)": "",
  " (104)": "",
  " (103)": "",
  " (102)": "",
  " (101)": "",
  " (100)": "",
  " (99)": "",
  " (98)": "",
  " (97)": "",
  " (96)": "",
  " (95)": "",
  " (94)": "",
  " (93)": "",
  " (92)": "",
  " (91)": "",
  " (90)": "",
  " (89)": "",
  " (88)": "",
  " (87)": "",
  " (86)": "",
  " (85)": "",
  " (84)": "",
  " (83)": "",
  " (82)": "",
  " (81)": "",
  " (80)": "",
  " (79)": "",
  " (78)": "",
  " (77)": "",
  " (76)": "",
  " (75)": "",
  " (74)": "",
  " (73)": "",
  " (72)": "",
  " (71)": "",
  " (70)": "",
  " (69)": "",
  " (68)": "",
  " (67)": "",
  " (66)": "",
  " (65)": "",
  " (64)": "",
  " (63)": "",
  " (62)": "",
  " (61)": "",
  " (60)": "",
  " (59)": "",
  " (58)": "",
  " (57)": "",
  " (56)": "",
  " (55)": "",
  " (54)": "",
  " (53)": "",
  " (52)": "",
  " (51)": "",
  " (50)": "",
  " (49)": "",
  " (48)": "",
  " (47)": "",
  " (46)": "",
  " (45)": "",
  " (44)": "",
  " (43)": "",
  " (42)": "",
  " (41)": "",
  " (40)": "",
  " (39)": "",
  " (38)": "",
  " (37)": "",
  " (36)": "",
  " (35)": "",
  " (34)": "",
  " (33)": "",
  " (32)": "",
  " (31)": "",
  " (30)": "",
  " (29)": "",
  " (28)": "",
  " (27)": "",
  " (26)": "",
  " (25)": "",
  " (24)": "",
  " (23)": "",
  " (22)": "",
  " (21)": "",
  " (20)": "",
  " (19)": "",
  " (18)": "",
  " (17)": "",
  " (16)": "",
  " (15)": "",
  " (14)": "",
  " (13)": "",
  " (12)": "",
  " (11)": "",
  " (10)": "",
  " (9)": "",
  " (8)": "",
  " (7)": "",
  " (6)": "",
  " (5)": "",
  " (4)": "",
  " (3)": "",
  " (2)": "",
  " (1)": "",
  " (0)": "",
  "be": "",
  "gr": "",
  "us": "",
  "jp": "",
  "fr": "",
  "fi": "",
  "de": "",
  "br": "",
  "ko": "",
  "ar": "",
  "lu": "",
  "no": "",
  "rs": "",
  "ru": "",
  "hk": "",
  "cn": "",
  "za": "",
  "ly": "",
  "ir": "",
  "in": "",
  "is": "",
  "lb": "",
  "mn": "",
  "pk": "",
  "qa": "",
  "tr": "",
  "vn": "",
  "ca": "",
  "ve": "",
  "au": "",
  "nz": "",
  "ja": "",
  "en": "",
  "uk": "",
  "kz": "",
  "dz": "",
  "sn": "",
  "co": "",
  "mx": "",
  "uy": "",
  "it": "",
  "es": "",
  "ht": "",
  "ch": "",
  "eo": "",
  "nl": "",
  "pt": "",
  "hu": "",
  "fa": "",
  "Die Presse": "",
  "at": "",
  " (163)": "",
  "The Daily Star (Bengladesh)": "",
  "bd": "",
  "Estadão": "",
  " (166)": "",
  " (165)": "",
  " (164)": "",
  "Le Progrès": "",
  "Bastamag": "",
  "Folha de S.Paulo": "",
  "O Globo": "",
  "Le Devoir": "",
  "El Mercurio": "",
  "cl": "",
  "El Mercurio (foto)": "",
  "EmolTV": "",
  "CNRS Le journal": "",
  " (175)": "",
  " (174)": "",
  " (173)": "",
  " (172)": "",
  " (171)": "",
  " (170)": "",
  " (169)": "",
  " (168)": "",
  " (167)": "",
  "L'Alsace": "",
  "Le Bien Public": "",
  "Les Dernières Nouvelles d'Alsace": "",
  "L'Est Républicain": "",
  "Le Journal de Saône et Loire": "",
  "Le Républicain Lorrain": "",
  "Vosges Matin": "",
  "Radio Calade": "",
  "La Voix de l'Ain": "",
  "Le Patriote Beauolais": "",
  " (185)": "",
  " (184)": "",
  " (183)": "",
  " (182)": "",
  " (181)": "",
  " (180)": "",
  " (179)": "",
  " (178)": "",
  " (177)": "",
  " (176)": "",
  "gb": "",
  "The Times": "",
  "Helsingin Sanomat": "",
  " (187)": "",
  " (186)": "",
  "Vidéos Figaro": "",
  "Ahram Online": "",
  "eg": "",
  "Al Ahram": "",
  "TV5Monde Info": "",
  "TV5Monde TV": "",
  "TV5Monde Europe (fr)": "",
  "Midi Libre": "",
  "Midi Libre photos": "",
  " (195)": "",
  " (194)": "",
  " (193)": "",
  " (192)": "",
  " (191)": "",
  " (190)": "",
  " (189)": "",
  " (188)": "",
  "Midi Libre videos": "",
  " (196)": "",
  "El Mercurio (fotos)": "",
  "IrishTimes.com": "",
  "ie": "",
  " (197)": "",
  "FAZ (Frankfurter Allgemeine Zeitung)": "",
  "FAZ (video)": "",
  "FAZ (audio)": "",
  " (200)": "",
  " (199)": "",
  " (198)": "",
  "Süddeutsche Zeitung": "",
  " (201)": "",
  "Süddeutsche Zeitung (video)": "",
  "Süddeutsche Zeitung (photo))": "",
  " (203)": "",
  " (202)": "",
  "FAZ (photo)": "",
  " (204)": "",
  "Die Zeit": "",
  " (205)": "",
  "Die Zeit (video)": "",
  "Die Zeit (photo)": "",
  " (207)": "",
  " (206)": "",
  "The Hindu": "",
  "Hindu Tamil": "",
  "hi": "",
  " (209)": "",
  " (208)": "",
  "Ettela'at": "",
  " (210)": "",
  "Corriere della Sera": "",
  " (211)": "",
  "La Stampa": "",
  " (212)": "",
  "(ja) Asahi Shimbun": "",
  "Diena": "",
  "lv": "",
  " (214)": "",
  " (213)": "",
  "Rodong Sinmun (en)": "",
  "kp": "",
  "Rodong Sinmun (ko)": "",
  "Rodong Sinmun (cn)": "",
  "zh": "",
  "Aftenposten": "",
  "nb": "",
  "El Commercio": "",
  "pe": "",
  "El Commercio (photo)": "",
  "El Commercio (video)": "",
  "The Philippine Star": "",
  "ph": "",
  " (222)": "",
  " (221)": "",
  " (220)": "",
  " (219)": "",
  " (218)": "",
  " (217)": "",
  " (216)": "",
  " (215)": "",
  "Manila Bulletin": "",
  "Manila Bulletin (cn)": "",
  " (224)": "",
  " (223)": ""
}