{
  "": {
    "language": "en",
    "plural-forms": "nplurals=2; plural=(n!=1);"
  },
  "Index": "",
  "Import: ": "",
  "A propos": "",
  "Position the cursor still over elements to get more info on them.": "",
  "(click here to load some headlines)": "",
  "(show: ": "",
  "all": "",
  " headlines ": "",
  "Cancel": "",
  "Select sources by:": "",
  "Language:": "",
  "Result type:": "",
  "audio": "",
  "photo": "",
  "text": "",
  "video": "",
  "Type:": "",
  "Press": "",
  "Radio": "",
  "Reference Press": "",
  "Scientific Press": "",
  "TV": "",
  "encyclo.": "",
  "institution": "",
  "magazine": "",
  "peer review": "",
  "Themes:": "",
  "docu.": "",
  "ecology": "",
  "financial": "",
  "general": "",
  "life-style": "",
  "media": "",
  "politics": "",
  "science": "",
  "techno.": "",
  "Technical criterion:": "",
  "AND": "",
  "HTTP": "",
  "HTTPS": "",
  "OR": "",
  "fast": "",
  "need cookies": "",
  "own search": "",
  "ratelimit": "",
  "slow": "",
  "Country:": "",
  "Scope:": "",
  "International": "",
  "National": "",
  "Regional": "",
  "Periodicity:": "",
  "daily": "",
  "half-yearly": "",
  "monthly": "",
  "weekly": "",
  "Cherry-pick sources:": "",
  "Custom Source": "",
  "Currently ": "",
  " source(s) selected. ": "",
  " reset filters": "",
  "➕ create source": "",
  " is ": "",
  "waiting for ": "",
  " source(s)": "",
  " over ": "",
  " selected, since ": "",
  " fetched ": "",
  " results for \"": "",
  " in ": "",
  "s from ": "",
  " source(s) over ": "",
  " selected.": "",
  "Please consider a small ": "",
  "donation": "",
  " to help keeping Meta-Press.es up-to-date.": "",
  "No results.": "",
  "Number of results by page:": "",
  "Total": "",
  "Last day": "",
  "Last 2 days": "",
  "Last 3 days": "",
  "Last week": "",
  "Last 2 wks": "",
  "Last month": "",
  "Last 2 mon.": "",
  "Last 6 mon.": "",
  "Last year": "",
  "Last 2 yrs": "",
  "Last 5 yrs": "",
  "Last decade": "",
  "All results": "",
  "Save search as:": "",
  "RSS file": "",
  "Toggle: ": "",
  "✅ sel. mode": "",
  "Export selection in:": "",
  "Sources: ": "",
  " (loaded in ": "",
  "s) for ": "",
  " countries and ": "",
  " languages.": "",
  "⇬ Back to top": "",
  "✍ Report feedback": "",
  "€ Support the project": "",
  " WebExtension made by ": "",
  " with ": "",
  " and ": "",
  "RSS feed file": "",
  "Like this :-)": "",
  "Settings": "",
  "Meta-Press.es logo by Elisa de Castro Guerra": "",
  "Show this quantity of headlines at once": "",
  "Reload the headlines": "",
  "Type your query here": "",
  "Click here to start the search. You can also press the Enter key.": "",
  "Click to reload the page and start a new search": "",
  "Criterion to restrict the research to some sources only. For instance, if you want only French sources, select the 'fr' tag in the Country selector.": "",
  "Only sources in the selected languages will be searched": "",
  "Only sources of the selected types (press, radio, TV…) will be searched": "",
  "Only sources of the selected themes will be searched": "",
  "Only sources corresponding to all those selected criterion will be searched": "",
  "More selection criterion": "",
  "Only sources from the selected contries will be searched": "",
  "Only sources flagged with those selected geographical areas will be seached": "",
  "Only sources of those selected periodicity will be searched": "",
  "You can also select one by one in which sources to search in": "",
  "Reset default selection": "",
  "Local permalink for this search": "",
  "No result, because of a torn butterfly net ?": "",
  "Click to display all results again": "",
  "Remove results of this source": "",
  "Link to the results in the source site": "",
  "selection mode": "",
  "Libres Software Service Society": "",
  "Adding search, sort, filters and flexibility to various existing HTML element collections.": "",
  "A lightweight, vanilla javascript select box replacement. No dependencies.": "",
  "This choice would result in an empty selection.": "",
  "Search terms, ex.": "",
	"Meta-Press.es needs the permission to read the content of the selected sources.\nThose \"host\" permissions can be dropped or requested once and for all via the\nMeta-Press.es setting page.": "",
  "Filter results": "",
  "https://liberapay.com/Meta-Press.es": "",
  "image": "",
  "podcast": "",
  "press": "",
  "radio": "",
  "reference press": "",
  "scientific press": "",
  "Settings of Meta-Press.es": "",
  "General": "",
  "Language: ": "",
  "Default": "",
  "Español": "",
  "Dark background: ": "",
  "auto": "",
  "dark": "",
  "light": "",
  "Reload search when source filters change: ": "",
  "Search": "",
  "Max. results by source: ": "",
  "Deduplicate results (based on title): ": "",
  "Load photos in results: ": "",
  "Headlines": "",
  "Load headlines: ": "",
  "Reload headlines when source filters change: ": "",
  "Max. loaded elements: ": "",
  "Default page size: ": "",
  "Permissions": "",
  "To be able to read results from the sources Meta-Press.es needs their \"host permission\".": "",
  "Request all host permissions: ": "",
  "Remember host permissions: ": "",
  "Drop all host permissions: ": "",
  "New sources": "",
  "You can define more sources to search in, adding the corresponding instructions in the following JSON editing text area.": "",
  "Some ": "",
  "instructions": "",
  " about how to define a source can be found": "",
  "here": "",
  "(en/fr) and more examples are shown below.": "",
  "Line number ": "",
  " ; column number ": "",
  "💾  Save": "",
  "Reload your Meta-Press.es addon tab to take your changes into account.": "",
  "Put ": "",
  "valid JSON": "",
  " here, use only double quotes: ": "",
  " ; and no trailling comas: ": "",
  "Here are the ": "",
  "provided sources": "",
  " to help you finding inspiration with examples. For instance :": "",
  " provides results in ": "",
  "extends": "",
  "the ": "",
  " uses the HTTP ": "",
  " method;": "",
  " uses ": "",
  " selectors to parse HTML.": "",
  "s to parse some fields.": "",
  "Added sources will remain accessible between searchs and updates.": "",
  "If you defined usefull sources, ": "",
  "please copy/paste us the corresponding JavaScript object:": "",
  "by email at ": "",
  "or via the ": "",
  "code repository": "",
  ", creating an issue or a pull request.": "",
  "This page uses ": "",
  ", and ": "",
  "Artwork by ": "",
  "https://www.meta-press.es/pages/meta-press.es_documentation.html#_how_to_add_a_new_source_to_the_search_engine": "",
  "https://developer.mozilla.org/en-US/docs/Web/JavaScript/Reference/Global_Objects/JSON/parse": ""
}
