<?xml version="1.0" encoding="UTF-8" standalone="no"?>
<!-- Created with Inkscape (http://www.inkscape.org/) -->

<svg
   xmlns:dc="http://purl.org/dc/elements/1.1/"
   xmlns:cc="http://creativecommons.org/ns#"
   xmlns:rdf="http://www.w3.org/1999/02/22-rdf-syntax-ns#"
   xmlns:svg="http://www.w3.org/2000/svg"
   xmlns="http://www.w3.org/2000/svg"
   xmlns:xlink="http://www.w3.org/1999/xlink"
   xmlns:sodipodi="http://sodipodi.sourceforge.net/DTD/sodipodi-0.dtd"
   xmlns:inkscape="http://www.inkscape.org/namespaces/inkscape"
   width="248"
   height="248"
   viewBox="0 0 65.616667 65.616667"
   version="1.1"
   id="svg488"
   inkscape:version="0.92.4 (5da689c313, 2019-01-14)"
   sodipodi:docname="favicon-metapress-v2-01.svg"
   inkscape:export-filename="/home/elisa/Pro/graphisme/metapres/logo-metapress-33px-bg.png"
   inkscape:export-xdpi="12.77"
   inkscape:export-ydpi="12.77">
  <defs
     id="defs482">
    <inkscape:path-effect
       effect="powerstroke"
       id="path-effect5030"
       is_visible="true"
       offset_points="0.022273139,0.3955798 | 0.5600909,1.2595355 | 0.8,1.6843298"
       sort_points="true"
       interpolator_type="CubicBezierFit"
       interpolator_beta="0.2"
       start_linecap_type="round"
       linejoin_type="extrp_arc"
       miter_limit="4"
       end_linecap_type="round" />
    <inkscape:path-effect
       effect="powerstroke"
       id="path-effect414"
       is_visible="true"
       offset_points="0.022273139,0.3955798 | 0.5600909,1.2595355 | 0.8,1.6843298"
       sort_points="true"
       interpolator_type="CubicBezierFit"
       interpolator_beta="0.2"
       start_linecap_type="round"
       linejoin_type="extrp_arc"
       miter_limit="4"
       end_linecap_type="round" />
    <inkscape:path-effect
       effect="powerstroke"
       id="path-effect416"
       is_visible="true"
       offset_points="0.022273139,0.3955798 | 0.5600909,1.2595355 | 0.8,1.6843298"
       sort_points="true"
       interpolator_type="CubicBezierFit"
       interpolator_beta="0.2"
       start_linecap_type="round"
       linejoin_type="extrp_arc"
       miter_limit="4"
       end_linecap_type="round" />
    <inkscape:path-effect
       effect="powerstroke"
       id="path-effect418"
       is_visible="true"
       offset_points="0.022273139,0.3955798 | 0.5600909,1.2595355 | 0.8,1.6843298"
       sort_points="true"
       interpolator_type="CubicBezierFit"
       interpolator_beta="0.2"
       start_linecap_type="round"
       linejoin_type="extrp_arc"
       miter_limit="4"
       end_linecap_type="round" />
    <inkscape:path-effect
       effect="powerstroke"
       id="path-effect420"
       is_visible="true"
       offset_points="0.022273139,0.3955798 | 0.5600909,1.2595355 | 0.8,1.6843298"
       sort_points="true"
       interpolator_type="CubicBezierFit"
       interpolator_beta="0.2"
       start_linecap_type="round"
       linejoin_type="extrp_arc"
       miter_limit="4"
       end_linecap_type="round" />
    <inkscape:path-effect
       effect="powerstroke"
       id="path-effect422"
       is_visible="true"
       offset_points="0.022273139,0.3955798 | 0.5600909,1.2595355 | 0.8,1.6843298"
       sort_points="true"
       interpolator_type="CubicBezierFit"
       interpolator_beta="0.2"
       start_linecap_type="round"
       linejoin_type="extrp_arc"
       miter_limit="4"
       end_linecap_type="round" />
  </defs>
  <sodipodi:namedview
     id="base"
     pagecolor="#d9d9d9"
     bordercolor="#666666"
     borderopacity="1.0"
     inkscape:pageopacity="0"
     inkscape:pageshadow="2"
     inkscape:zoom="2.8284271"
     inkscape:cx="51.845897"
     inkscape:cy="31.584761"
     inkscape:document-units="mm"
     inkscape:current-layer="layer1"
     showgrid="false"
     fit-margin-top="0"
     fit-margin-left="0"
     fit-margin-right="0"
     fit-margin-bottom="0"
     units="px"
     inkscape:window-width="1920"
     inkscape:window-height="1034"
     inkscape:window-x="0"
     inkscape:window-y="28"
     inkscape:window-maximized="1"
     inkscape:snap-global="false"
     showguides="true"
     inkscape:guide-bbox="true" />
  <metadata
     id="metadata485">
    <rdf:RDF>
      <cc:Work
         rdf:about="">
        <dc:format>image/svg+xml</dc:format>
        <dc:type
           rdf:resource="http://purl.org/dc/dcmitype/StillImage" />
        <dc:title></dc:title>
      </cc:Work>
    </rdf:RDF>
  </metadata>
  <g
     inkscape:label="Calque 1"
     inkscape:groupmode="layer"
     id="layer1"
     transform="translate(-20.294552,-10.494046)">
    <g
       id="g233"
       transform="translate(49.477083,-138.7712)"
       inkscape:export-xdpi="150.02838"
       inkscape:export-ydpi="150.02838">
      <image
         y="154.09752"
         x="-60.892677"
         id="image229"
         xlink:href="data:image/png;base64,iVBORw0KGgoAAAANSUhEUgAAARcAAAAnCAIAAACqvJuaAAAIBHpUWHRSYXcgcHJvZmlsZSB0eXBl IGV4aWYAAHjarZdrsiSrDYT/swovARDisRyQIMI78PL9UV0zZ17Xjuvw6ZmuLpoCkZlKqcP+1z9P +Ad/OcUeirZeR62RvzLKyJMPPX7+PtcUy/P+uWnvp/TzeMjtfSgzJFzlc1v3++BkXL8eaOUdXz+P h2bvOv1d6P3i24Jyd8588DfIdyHJn/H03oeRPx9m/eE47/9TP8umd/Ff70sDDFfWkxzyliTx8/7Z SYhChkzeE+9Rar4jhc/6jN9ofsMvvHH8EcAsf8Yv2jtDvuD4LPTtWPUXnN7xpH/G70Hpx4hSfqfk ry/eiL5x+jt+x/s5+3O6WWoArvoe6tsRn09MXMApz2OVV+O/8rk9r8GrxxkN1pyjrhAXNyNlsD6p JE8znbSfqyUjxJJ3blxztizPWJeWRzb5UMArndwCPLh0uDKYE4bz91jSs++4+7FZZ2dPzMyJxRJP /PQKvw78r6+fFjrHPnLrD9DpQ3C+qiGMy9x9ZxaEpPNiqg++KXwu8de/S6zAoD4wdw444/ossTR9 aUseniVqYGqJ5U1sfxcAIvZWgkHdJcWaRFNNseXcUgLHDj+TyLOUvGAgadDsRJmLkAkt93z35pmW nrlZ82cYe4EIlSoNakgUyCpFSyXfOhKaQUWLqlZt2nXorFJL1Vprq9enZpNWmrbaWutttNmll669 9tZ7H32OPAQb0zDqaKOPMeZk01kma03mTwZWXrLK0lVXW32NNQ35WDG1as26DZueXRwLCF69effh c6eNlHbZuutuu++x50FrR045euppp59x5nfWXlZ/Zu1X5v4za+llLT9E3XntizWGW/u2RLp2opcz GMslwXi7DCDofDmLPZWSL3OXsziyBBHNRKmXHE+XMRgsO2U96Tt3X8z9JW8BdP8ub/lPzIVL3f+D uXCp+4G533n7A2s+H7v9ZOPNQjDFIYX026X2mTv7F945aDZLWsD5QITqOktmO/UZL2fM2nycXn0P VbwFQW73OCgqhajy8IRtJoWnm21eEucc4NznHtUFM1vtzOJdzSTfwqx9tlHVg3PMUvckWmK/KHnj gb6Ia4lhZibFcl4DkAabGAt2m2fXPGKyw94KJ6EngAWK6b60rzXK7QCcDeeOeVQ5NgciWDQJcJKm cqLp1WRzBOdhWUL9DbeExNKrbZn91GndKzoigSijS12leLqikdI9pb7x74XtrV30ih9u80JKYbmM fNRWsW0LIWvBmOZaSBZHKhZtM3WJ12UkGEwOGgXnREMaT4wjwvwgWP4qBwbH3Oyap2npyL7Fu2V6 SdygKHNIT+oIVXfSfsgJKjgRSsEhV5nmaNX65n3uNk+fXdPK7NPQQ8PyhGI7o38fyhfhVVGsHh9a rIfJybdbRUmX8TO8ItFKcSPxOEkjht6slJvI3HFcnT4T6bI345S2FX1aWIhuULSQu1mnUznD2m7K SSyOVuuRDYU3QsCQ1RJpsk9DkqnbWYr+ZMaNZ6PnMw1q8+4++/IB7qTGZXPoHkYHNGltgNwL8o5O ao/WS7aF1hiAwEnSIoqGoE+i2vbk3ie1gOl9r+2aFZp8J/x0O/S6wGo16kP2uC7XZW8fK6yRFhX6 5uXMVnU7O2/SmXxH/MVlKxHta66WCaggCdKmnrXluCk5DL8x1ImaVMeKnR2VPXTtMXZaTRD4Ruy9 s8SCg366tmR1pYbt3jbFCc82mtoBdUXALtWU1EFS3OSCEVK2rx/QpOYCxHmsXk4WeRxGrU2kXxqb ZztsEwjL9nEyDT80fFSb3CpJJuzossyGcApHF+1RRbznIneak4YYViOZLmsU0APyymkHBpoBPu8r heE4DlZJcQBPEk5Jea2tZGi4BytxGbuvQgEoLYwt2DV2anqzEVEKmJd4jBZtkjyt4Y1jPph0Mph4 +tl2bj5unGQ1m7mQ/YRqBwUamxYAwZwtUwiioxWInFg1rR5Vyib5VdLtFYU8o3vAVil7RLVT2OtU +jwIB1OsoCwMAzSTDoBCKQt3iBV1JCSstwz00co+0RRTb1dyxiWMFgE94p10M0ghGfPTTfw4fXms bUk9p5R1OABVYZoRoo9BD9vJ0eSCmDX0AddR6G3Ul7mI3QTveErdlUKF0suIZ6wMBHSP/GRRDIIk v3jwL8vAuQE7QgXV9WBGiHpQUbofW0OhmgJlEXb99AQbbZZNYSvmye+MRr3kRxrFAxvh10CncGF+ tpdRE69fUFjSoa8y+KfWGKU65yv8I4idhQt6xr9BseKvA0MJFYskbTfWf/OS3iYKFYPoEmbX7g3O WVE7DVVucqs7kmdDnQsZU8g3jkOlTZS9VOdpwOFnLmk3s1CQTrAtRzAG7MKBfOM+ZCluQCue8zFn dNstCC3M2O5PkXVtahc88PbvwEFpwLOqzAxRNAv1DNzNWXphqovv+4PJtHVTMobS1lbaHMNP0wFt dEObABhUQ5qgQSOwdyELORz1W8YxoVKj9p2Im/KSKycPSJ6uhiqOakfXla8tsNZNCeoVOd7lynLc H53Igv7rrMl6dBuYYkUI1M9Yw4b7eEixQa4DsXPCqWm2a/Jl7qcT8NOsHbqau/yMVJk9y7Vufmm1 1O5ouPHTwbVFJ1e1k8H9utruk84nCjewhEgxIPbFTKlu0AQ8yHlWcD+dqnkC/aVz3CdhR96RXoHm ZLFCvIkEpEav55T4iyk/MQvlV+Nv1/BXX/zd639dCACopUz8N9VkJc7JrZD5AAABhWlDQ1BJQ0Mg cHJvZmlsZQAAeJx9kT1Iw0AcxV9TtaItgnYQcchQnSyIioiTVqEIFUKt0KqDyaUfQpOGJMXFUXAt OPixWHVwcdbVwVUQBD9AXFydFF2kxP8lhRaxHhz34929x907QKgWmWa1jQKabpvJeExMZ1bEwCu6 0YEQptErM8uYlaQEWo6ve/j4ehflWa3P/TlCatZigE8knmGGaROvE09u2gbnfeIwK8gq8TnxiEkX JH7kuuLxG+e8ywLPDJup5BxxmFjMN7HSxKxgasQTxBFV0ylfSHusct7irBXLrH5P/sJgVl9e4jrN QcSxgEVIEKGgjA0UYSNKq06KhSTtx1r4B1y/RC6FXBtg5JhHCRpk1w/+B7+7tXLjY15SMAa0vzjO xxAQ2AVqFcf5Pnac2gngfwau9Ia/VAWmPkmvNLTIEdCzDVxcNzRlD7jcAfqfDNmUXclPU8jlgPcz +qYM0HcLdK16vdX3cfoApKirxA1wcAgM5yl7rcW7O5t7+/dMvb8fcH5yprER1yEAAAAJcEhZcwAA C4kAAAuJATfJy60AAAAHdElNRQfjCwYNOwOj3ICQAAALjElEQVR42u2cf3RT1R3Av/e+pHnpjzQB 2iTtQdqipWkttAlgm3YWC7NaVFRgR2DT1cOBA+IP6DiAqGeDVRG7cZiVTYbiROcGVhwKCpS2YH8J JuCEtIBQOqVJCJC0TZs0ee/d/RHIugLFvP44Fe/nr+TlnpuXvPu53/v9vpugGTMfAwqF0g8w/Qoo FGoRhdKbsUmJ1CIKhcYiCoVaRKFQqEUUCrWIQqEWUSjUIgqFQi2iUIYKyeB17clbhwhhD62i3/IQ QIAgQH7Wd+aBry6ltIKApQhzhBMIQgwZ2RQ39tOJUm9YoNlwO/mPP/wAALyCQIDIEMbof2coEBJ4 yhOCEUIAhJBHZs/9qVhEoseQgevtmSWLCSGvv/HnQTrbafn36PWZI1TKPtpcdrpMZvOByur+vBHL sjnGrFSdLj5OCwDnW62Wxsbaugav19tPhbojPKcePtwxzgEeAMRf4nxRDIMQEB5dHm/1y+qTP54s 65QPQ5FMXR3VbtcJb+fpbg+DkFzGTlSNzGuxZcWPjlQq3YLgdLtHKxSEEAGgp2O3vkUDS5xWcyOv +i/YtPx7pk2956bNRqiUP5+ajwBVVFaJeyO9PuPB6YUWS+OHH+20Wm0AoNVqco3ZK5cv3bX7M7P5 mLhuESBflPfkjMPucQ7cxbhJd0HUvblRU9bb1vpJN0IYPKgjxXHykcMp/7orrIMV9y4NtQcBUFbO 3VeG/pF6u9Wq1moNk7L7m1cgsPt97Tx/Oxve4e1u+frfe3lhx+/WN5nMl73euXPntU3QPbVy5TyG RQwjkAGcnOGZJYuvHVo9Od9qvenQ+tFYdK08wQ8vl7MqpTIpMfFsc7O4PnNzsgBgY9mmwMgOsK5k zcrVL/VsptVqnl2yWK/PFGeRXp/x0PT739zyttVqe2B6YaouBQBMZvOO8p01dZqF84sAQJxI3RGe 0zMOu8c5oBMjjDgCt8kSl2pXWTzffOD8IBwzBAjqxO5xjlMzvrxj52RZpzyk/p9evGDf3s+nTVlN eozgqXk51xlPEiZ+9G1vv/NeSP1nyqNStOF72i83uNvujNUoN27et+09e1fn2pLfOwVeb9CfGaXc 3u5o5dBvNAO5wPlBM9QPCH0/PouunTlOWJpyjVkGfYZoi1hWDgBWq23F8mUqpdLpcr362h+vbRZw rO9VXx8LuQenFwYVyjVmBY4Hg9ubW7YunF9ksTSJWNqdmW5qT74InUCwgJHEJ0A0o+QJb4i4a7uz XIZkPHB+7Eed0J588cx0U+r23JD6//b0qXnz5qnV6pu2tNvt77//fqjnzxNBjpmZypg4JPlcRjpv T7zQ7QWAf1RX5RcU6GO05uaTMXL5QastwRX+C1XsAA6nP5Vt+gmt6Pqgtq4u15iVmqqD8p397Oq6 8gwIucZsk/lYwMOJ+gn/H6MyKyqrrFbbCUtTrjFbRKBzJduIFxAGjLAf+AgclhOZxyDG4v2m3edr Z3wSBEqJBDAQL3El20Lt3+v1KhQKj8cTPHLkyJFt27bZ7faIiIilS5emp6cHjisUiri4uJNn/hPq irSl2xPNSLKjVXGcb8+ImIe2vPWXrVsTDYYpurTy7dvhqSdwhztaGrbf7ZwWpbqV8yLvpGKQj5LV rUVcV+/0VxLebXwRPA72yMAPU6fT1Wq1xWk1en2G6NQiQN+xqD+kpup2lH90gzXDlQc1dfWzZz4q wiIiIEAEAAmE7xT457Ur8xT5POFnKGenyTPkmG3ynNjieEMAASFEhJCzc7/f31Oh48ePv/zyyyUl JQzDSKXS4uLi4uJig8EQbBxyXgRIJZFWu10Tw6PGSGSLHn8cAO5ITi4t32E713JqlHJ8ejqyO/wI vvN3H3K7bunqgjRCUCZ0G1/sJVJAIUGZgDnPYBV5jh6N096flqrrp0WDF4vitJpg0lVT29CzmGEy HQ2uGPvOdG88lxMARAghBNaPLl0Qs0SKwgiQqdEFU6EAAE57mt5ybCKEYIQBQs4sOI7raVFZWVlp aenatWvtdrtarS4pKSkrK0tNTQ02DrX/Nt6vYCS54Yq3L9sWjIpjeQFjZlRiQmS04ouW5qSFT3Y6 LmFEwhBWM9Lv/b7hVl0YyLuussOlqK0lIBKRhPdSCLW1yA6XDpZFpqMAkKbTsSzbz65WLF+2Yvmy QZ26KiqrKg5UOV0up8tVcaBKdMXvf/MUAAAIRJBhdkHM02FYFhCGJ7xf8PmJX4ZZBaMgQECEQ1dj URC3281xnN1u9/l8drudYRi73R58VUQsIgCVbucIadikyOg3nLawsDCJhGl3uQ5sL4+YcR8/Mprn /ACoXRBOdHc5eB8MIUNdXUBcF1u7xpvzUkCkK+WjqwqxtWuuXekN2GLS6z3R2Jim0xkMmbW19cMw HLVabVqtxmq1/eqXc+QsazId3fj6JgBI06UsmF/k8Xh2lH+sUilbrTZxl5oQQoAghAQiEEIQQoQQ DBgBQoCau7/lAweBQOj3W3rFopEjR3Icp9FobDabRqORSqUsywYbiIhFSolUwUj/+V3z7Nj4Juf5 rfv+/us5j2185dWZ992/KmeK1e3+Uikze9wRGKez4WOk7Ne3dnWhp0iBI0Og0NVKXWOaTqfPyOin RYOExdJo0Otr6+rSdDoASEpMnN07QFXnGrMtlkYRnWMCAroSZTBiCJCASADAAy8BSVX7/ov8JRmS ABGz/OiVF+Xn569atWrDhg0cx3Ec99xzzxUVFQUbiIhFHMdNCo8qX/+HzjEJBVlZL+z5PEOXWt/Q UF1VOQKwIjzyzqjo+7yev7VdOORuGy+PGG4Xd+D30QVEQm0tV54OiUIAYDYf83o98XFalahK9GBT U1c/UT+BZdnt16sxVByoAoC01JSaOjFTgNqUhFiEAfMC7+DsGGEGMxhhjLAUSznCmbuOIAIYMJIj tSlJXCwKkpSUNHfu3NWrV69YsaK0tHTWrFnx8fHBV0XEIowxIeSFZcWzZ83S3j723Xff2bx5S+H0 wlh1rI/na7o67EDiWfnz6jFzVLF5kcPu+g5KpTsYkQBgaBS6Go6aDPrMHKPx0917QlwQelhWru1R ALguWq0GAJwuMTUir9e7a/dnC+cXvbll6+YtW3NyssYmJgDAmeZzZtPRyy7XgvlP7tq9R9w+oIT9 4wkm9tyzvk7fC98Vr4r7bRhmcSANQuAn/os+ByAMEURdk5Cwf3yo/TscjgsXLkRFRfX4KrSLFi0K Pg0Goo6ODhL63oKARZGKKADgeaG1tbW6uqq6upIQEoZxujzir1+bsjt9dxuNT6g0A7t7aVjvXUBc l/zgyiGeEkzmYwZ9ZqouJVSLAkWzZ5cs7nV8XcmaG1UyxEVLAFg4v+i4paniQNW2qzuAcozZd6am 7Nq9R3SBEQtM4r4JAMSee67c+eEnzo9iwmLRlQUebuPavcTDRuKYLxIS92dggQm1//QJGc3NzYJA bpqIO52XM/WG083fh1ZduJrI8TwvkUheeeXVwsJCtVrt9/sRwqMkUr3DVfeVOXfyZA4hydDuoxvq 6oInbx2JHtPXxXadE73FO5h2X/sgyNnmZnHZeaBKZjBkqpR9rRacLpfJdLQ/JTWz+ZjF0pRrzJ49 89HAFNhqtVksjete29DP3aiYZxL2ZoCALvzsHOkmFwRroIpABMIwGMlw7KGkhP0TsMCI2I16qKbh hzeuPFgrbqTyvMAwzKe799Q3NFTs3ysIAsMwAbsKpk2bmpeHMcMMtEEDUl1AA/jfqDe1CLW1DH2A +okQmM4FLJzPbrqUbEVw9W4uIQTByJPa+PoULOBg1WFYEfhlBM8LDIN37fpExsoK7r2X5wWMUeBs BUHAGAc/5sOz5vTd4dikxDNnm4fs/BH9h2HKrccQW0R/60qhUIsoFGoRhUItolCoRRQKhVpEoVCL KBRqEYVCLaJQbjGG8pYrtYhCoRZRKMOA/wJsuKBjeFaxVQAAAABJRU5ErkJggg== "
         preserveAspectRatio="none"
         height="13.207999"
         width="94.487999" />
      <rect
         style="opacity:1;vector-effect:none;fill:#4f5358;fill-opacity:1;stroke:none;stroke-width:1.32291663;stroke-linecap:butt;stroke-linejoin:miter;stroke-miterlimit:4;stroke-dasharray:none;stroke-dashoffset:0;stroke-opacity:0.57086618"
         id="rect231"
         width="8.1264877"
         height="8.5044641"
         x="10.750653"
         y="156.33617" />
    </g>
    <g
       id="g237"
       transform="matrix(1.6139403,0.27716149,-0.27716149,1.6139403,88.207809,-265.99914)"
       inkscape:export-xdpi="150.02838"
       inkscape:export-ydpi="150.02838">
      <path
         sodipodi:nodetypes="ccccccccccccccccccccscc"
         style="fill:#ffffff;fill-opacity:1;stroke:none;stroke-width:0.01331474;stroke-miterlimit:4;stroke-dasharray:none;stroke-opacity:1"
         d="m 14.231259,175.54627 c 0.08248,-0.17917 0.126394,-0.29121 0.120359,-0.30705 -0.0054,-0.0137 -0.07584,-0.13407 -0.156903,-0.26744 -0.08106,-0.13338 -0.15014,-0.24985 -0.153503,-0.25884 -0.0034,-0.01 0.121758,-0.001 0.310435,0.0207 l 0.316546,0.037 0.202087,-0.23705 c 0.111154,-0.13037 0.206129,-0.23521 0.211072,-0.23299 0.0049,0.002 0.03761,0.14054 0.07261,0.30735 l 0.06366,0.30328 0.294524,0.12567 c 0.16199,0.0691 0.288614,0.13043 0.281401,0.13624 -0.0072,0.006 -0.131586,0.0779 -0.276381,0.16021 l -0.263278,0.14965 -0.02591,0.3143 c -0.01028,0.12466 -0.01981,0.23433 -0.02485,0.28701 5.62e-4,0.0378 -0.03375,-0.0124 -0.03248,0.0104 -0.03807,-0.0325 -0.109773,-0.0968 -0.190996,-0.17148 -0.119535,-0.10999 -0.228218,-0.20661 -0.241514,-0.21469 -0.01878,-0.0114 -0.08677,4.7e-4 -0.305271,0.0527 -0.154604,0.0371 -0.292426,0.0673 -0.306278,0.0673 -0.02024,0 9.58e-4,-0.0554 0.10467,-0.28223 z"
         id="path235"
         inkscape:connector-curvature="0" />
    </g>
    <g
       transform="matrix(0.01875379,0.04972117,-0.04972117,0.01875379,48.076943,-64.934473)"
       id="g245"
       inkscape:export-xdpi="150.02838"
       inkscape:export-ydpi="150.02838">
      <path
         sodipodi:nodetypes="ccccc"
         inkscape:connector-curvature="0"
         id="path239"
         d="m 1653.5998,293.5384 -5.0146,5.21265 21.85,23.09872 c 2.3146,2.70359 7.6802,-1.34996 4.7249,-4.99766 z"
         style="color:#000000;clip-rule:nonzero;display:inline;overflow:visible;visibility:visible;opacity:1;isolation:auto;mix-blend-mode:normal;color-interpolation:sRGB;color-interpolation-filters:linearRGB;solid-color:#000000;solid-opacity:1;vector-effect:none;fill:#00d0c0;fill-opacity:1;fill-rule:nonzero;stroke:none;stroke-width:3.08093119;stroke-linecap:round;stroke-linejoin:round;stroke-miterlimit:4;stroke-dasharray:none;stroke-dashoffset:0;stroke-opacity:1;marker:none;marker-start:none;marker-mid:none;marker-end:none;paint-order:normal;color-rendering:auto;image-rendering:auto;shape-rendering:auto;text-rendering:auto;enable-background:accumulate" />
      <g
         transform="matrix(-1.7104986,0,0,1.7104986,2358.8078,162.86467)"
         id="g243">
        <path
           style="color:#000000;font-style:normal;font-variant:normal;font-weight:normal;font-stretch:normal;font-size:medium;line-height:normal;font-family:sans-serif;font-variant-ligatures:normal;font-variant-position:normal;font-variant-caps:normal;font-variant-numeric:normal;font-variant-alternates:normal;font-feature-settings:normal;text-indent:0;text-align:start;text-decoration:none;text-decoration-line:none;text-decoration-style:solid;text-decoration-color:#000000;letter-spacing:normal;word-spacing:normal;text-transform:none;writing-mode:lr-tb;direction:ltr;text-orientation:mixed;dominant-baseline:auto;baseline-shift:baseline;text-anchor:start;white-space:normal;shape-padding:0;clip-rule:nonzero;display:inline;overflow:visible;visibility:visible;opacity:1;isolation:auto;mix-blend-mode:normal;color-interpolation:sRGB;color-interpolation-filters:linearRGB;solid-color:#000000;solid-opacity:1;vector-effect:none;fill:#00d0c0;fill-opacity:1;fill-rule:nonzero;stroke:none;stroke-width:0.3410655;stroke-linecap:butt;stroke-linejoin:miter;stroke-miterlimit:4;stroke-dasharray:none;stroke-dashoffset:0;stroke-opacity:1;color-rendering:auto;image-rendering:auto;shape-rendering:auto;text-rendering:auto;enable-background:accumulate"
           d="m -13.861328,1262.8379 c -0.123549,7e-4 -0.239615,0.037 -0.367188,0.086 -0.309073,0.1185 -0.622975,0.359 -0.943359,0.6817 l 0.751953,0.7734 c 0.131567,-0.1477 0.252874,-0.2667 0.345703,-0.3359 0.0513,-0.038 0.06302,-0.04 0.08984,-0.053 0.01117,0.018 0.05449,0.062 0.06055,0.2832 0.207224,1.2234 0.33096,2.7277 -0.622224,4.7514 -0.953184,2.0237 -1.994409,3.2257 -3.104917,3.4158 -0.05496,0.044 -0.08734,0.058 -0.126547,0.08 -0.01577,-0.028 -0.02964,-0.017 -0.0433,-0.1739 -0.51444,-0.5803 -0.430933,-0.1926 -0.817154,0.5297 0.05416,0.1252 0.123098,0.2387 0.21828,0.3385 0.194406,0.2037 0.467797,0.3408 0.862478,0.5025 0.05169,0.025 0.08419,0.033 0.15545,0.056 0.07529,0.024 0.173099,0.056 0.289251,0.093 0.232323,0.074 0.534006,0.1699 0.850009,0.2702 3.376341,1.1598 5.681786,1.8051 8.1160216,3.834 l 0.2781936,-0.5721 c 0.5772823,-1.1843 0.9089071,-3.1153 0.8362482,-4.7295 -0.038081,-0.8461 -0.2380856,-1.8435 -0.5375162,-2.8383 -0.2994387,-0.9948 -0.699387,-1.9811 -1.1575771,-2.7299 -1.0477891,-1.712 -2.6751671,-3.1632 -4.3197391,-3.9661 -0.330378,-0.1614 -0.512684,-0.2489 -0.6875,-0.2832 -0.04371,-0.01 -0.08577,-0.014 -0.126953,-0.014 z"
           transform="matrix(-1.1203783,-2.9704121,-2.9704121,1.1203783,4174.3226,-1400.9832)"
           id="path241"
           inkscape:connector-curvature="0"
           sodipodi:nodetypes="ccccccczcccccccccccccccccc" />
      </g>
    </g>
    <rect
       inkscape:export-ydpi="150"
       inkscape:export-xdpi="150"
       transform="rotate(116.69952)"
       rx="0.3507925"
       ry="0.26725483"
       y="-68.011269"
       x="-8.6500797"
       height="0.55653936"
       width="1.9151906"
       id="rect247"
       style="opacity:1;vector-effect:none;fill:#00d0c0;fill-opacity:1;stroke:none;stroke-width:0.26458332;stroke-linecap:butt;stroke-linejoin:miter;stroke-miterlimit:4;stroke-dasharray:none;stroke-dashoffset:0;stroke-opacity:1" />
    <g
       inkscape:export-ydpi="150.02838"
       inkscape:export-xdpi="150.02838"
       transform="matrix(-0.38766052,0.01919301,0.0242209,0.39303939,72.217383,-96.844093)"
       id="g253">
      <g
         id="g249"
         transform="matrix(-3.5192651,0,0,3.5192651,93.845268,-319.51993)" />
      <path
         style="color:#000000;clip-rule:nonzero;display:inline;overflow:visible;visibility:visible;opacity:1;isolation:auto;mix-blend-mode:normal;color-interpolation:sRGB;color-interpolation-filters:linearRGB;solid-color:#000000;solid-opacity:1;vector-effect:none;fill:#ffffff;fill-opacity:1;fill-rule:nonzero;stroke:none;stroke-width:0.29704177;stroke-linecap:butt;stroke-linejoin:round;stroke-miterlimit:4;stroke-dasharray:none;stroke-dashoffset:0;stroke-opacity:1;marker:none;marker-start:none;marker-mid:none;marker-end:none;paint-order:normal;color-rendering:auto;image-rendering:auto;shape-rendering:auto;text-rendering:auto;enable-background:accumulate"
         d="m 47.054462,292.93313 c -1.54061,0.15035 -4.326141,1.0902 -4.981788,1.52942 L 41.2639,293.28954 c 0,0 3.876734,-0.83402 5.790262,-0.35779 z m -2.99911,4.44605 -0.211916,-0.42389 c 0,0 1.823093,-3.322 3.217018,-3.78773 0.02372,-0.009 0.04785,-0.0165 0.07241,-0.0219 -0.09926,0.0695 -0.174101,0.11054 -0.25845,0.19956 -1.041485,1.09914 -2.053458,2.59666 -2.819062,4.03396 z m 3.102297,-3.98103 c -0.884969,1.00733 -2.687843,5.11868 -2.687843,5.11868 l -0.247122,-0.62567 c 0,0 1.736443,-3.65219 2.934967,-4.49301 z"
         id="path251"
         inkscape:connector-curvature="0"
         sodipodi:nodetypes="cccccccccscccccc" />
    </g>
    <rect
       ry="0.3507925"
       rx="0.3507925"
       y="14.698668"
       x="-12.744375"
       height="14.706282"
       width="97.399475"
       id="rect255"
       style="opacity:1;vector-effect:none;fill:none;fill-opacity:1;stroke:#aa0000;stroke-width:0.24476291;stroke-linecap:butt;stroke-linejoin:miter;stroke-miterlimit:4;stroke-dasharray:none;stroke-dashoffset:0;stroke-opacity:1" />
    <g
       inkscape:export-ydpi="150.02838"
       inkscape:export-xdpi="150.02838"
       transform="translate(49.477083,-124.08683)"
       id="g287">
      <image
         width="94.487999"
         height="13.207999"
         preserveAspectRatio="none"
         xlink:href="data:image/png;base64,iVBORw0KGgoAAAANSUhEUgAAARcAAAAnCAIAAACqvJuaAAAIBHpUWHRSYXcgcHJvZmlsZSB0eXBl IGV4aWYAAHjarZdrsiSrDYT/swovARDisRyQIMI78PL9UV0zZ17Xjuvw6ZmuLpoCkZlKqcP+1z9P +Ad/OcUeirZeR62RvzLKyJMPPX7+PtcUy/P+uWnvp/TzeMjtfSgzJFzlc1v3++BkXL8eaOUdXz+P h2bvOv1d6P3i24Jyd8588DfIdyHJn/H03oeRPx9m/eE47/9TP8umd/Ff70sDDFfWkxzyliTx8/7Z SYhChkzeE+9Rar4jhc/6jN9ofsMvvHH8EcAsf8Yv2jtDvuD4LPTtWPUXnN7xpH/G70Hpx4hSfqfk ry/eiL5x+jt+x/s5+3O6WWoArvoe6tsRn09MXMApz2OVV+O/8rk9r8GrxxkN1pyjrhAXNyNlsD6p JE8znbSfqyUjxJJ3blxztizPWJeWRzb5UMArndwCPLh0uDKYE4bz91jSs++4+7FZZ2dPzMyJxRJP /PQKvw78r6+fFjrHPnLrD9DpQ3C+qiGMy9x9ZxaEpPNiqg++KXwu8de/S6zAoD4wdw444/ossTR9 aUseniVqYGqJ5U1sfxcAIvZWgkHdJcWaRFNNseXcUgLHDj+TyLOUvGAgadDsRJmLkAkt93z35pmW nrlZ82cYe4EIlSoNakgUyCpFSyXfOhKaQUWLqlZt2nXorFJL1Vprq9enZpNWmrbaWutttNmll669 9tZ7H32OPAQb0zDqaKOPMeZk01kma03mTwZWXrLK0lVXW32NNQ35WDG1as26DZueXRwLCF69effh c6eNlHbZuutuu++x50FrR045euppp59x5nfWXlZ/Zu1X5v4za+llLT9E3XntizWGW/u2RLp2opcz GMslwXi7DCDofDmLPZWSL3OXsziyBBHNRKmXHE+XMRgsO2U96Tt3X8z9JW8BdP8ub/lPzIVL3f+D uXCp+4G533n7A2s+H7v9ZOPNQjDFIYX026X2mTv7F945aDZLWsD5QITqOktmO/UZL2fM2nycXn0P VbwFQW73OCgqhajy8IRtJoWnm21eEucc4NznHtUFM1vtzOJdzSTfwqx9tlHVg3PMUvckWmK/KHnj gb6Ia4lhZibFcl4DkAabGAt2m2fXPGKyw94KJ6EngAWK6b60rzXK7QCcDeeOeVQ5NgciWDQJcJKm cqLp1WRzBOdhWUL9DbeExNKrbZn91GndKzoigSijS12leLqikdI9pb7x74XtrV30ih9u80JKYbmM fNRWsW0LIWvBmOZaSBZHKhZtM3WJ12UkGEwOGgXnREMaT4wjwvwgWP4qBwbH3Oyap2npyL7Fu2V6 SdygKHNIT+oIVXfSfsgJKjgRSsEhV5nmaNX65n3uNk+fXdPK7NPQQ8PyhGI7o38fyhfhVVGsHh9a rIfJybdbRUmX8TO8ItFKcSPxOEkjht6slJvI3HFcnT4T6bI345S2FX1aWIhuULSQu1mnUznD2m7K SSyOVuuRDYU3QsCQ1RJpsk9DkqnbWYr+ZMaNZ6PnMw1q8+4++/IB7qTGZXPoHkYHNGltgNwL8o5O ao/WS7aF1hiAwEnSIoqGoE+i2vbk3ie1gOl9r+2aFZp8J/x0O/S6wGo16kP2uC7XZW8fK6yRFhX6 5uXMVnU7O2/SmXxH/MVlKxHta66WCaggCdKmnrXluCk5DL8x1ImaVMeKnR2VPXTtMXZaTRD4Ruy9 s8SCg366tmR1pYbt3jbFCc82mtoBdUXALtWU1EFS3OSCEVK2rx/QpOYCxHmsXk4WeRxGrU2kXxqb ZztsEwjL9nEyDT80fFSb3CpJJuzossyGcApHF+1RRbznIneak4YYViOZLmsU0APyymkHBpoBPu8r heE4DlZJcQBPEk5Jea2tZGi4BytxGbuvQgEoLYwt2DV2anqzEVEKmJd4jBZtkjyt4Y1jPph0Mph4 +tl2bj5unGQ1m7mQ/YRqBwUamxYAwZwtUwiioxWInFg1rR5Vyib5VdLtFYU8o3vAVil7RLVT2OtU +jwIB1OsoCwMAzSTDoBCKQt3iBV1JCSstwz00co+0RRTb1dyxiWMFgE94p10M0ghGfPTTfw4fXms bUk9p5R1OABVYZoRoo9BD9vJ0eSCmDX0AddR6G3Ul7mI3QTveErdlUKF0suIZ6wMBHSP/GRRDIIk v3jwL8vAuQE7QgXV9WBGiHpQUbofW0OhmgJlEXb99AQbbZZNYSvmye+MRr3kRxrFAxvh10CncGF+ tpdRE69fUFjSoa8y+KfWGKU65yv8I4idhQt6xr9BseKvA0MJFYskbTfWf/OS3iYKFYPoEmbX7g3O WVE7DVVucqs7kmdDnQsZU8g3jkOlTZS9VOdpwOFnLmk3s1CQTrAtRzAG7MKBfOM+ZCluQCue8zFn dNstCC3M2O5PkXVtahc88PbvwEFpwLOqzAxRNAv1DNzNWXphqovv+4PJtHVTMobS1lbaHMNP0wFt dEObABhUQ5qgQSOwdyELORz1W8YxoVKj9p2Im/KSKycPSJ6uhiqOakfXla8tsNZNCeoVOd7lynLc H53Igv7rrMl6dBuYYkUI1M9Yw4b7eEixQa4DsXPCqWm2a/Jl7qcT8NOsHbqau/yMVJk9y7Vufmm1 1O5ouPHTwbVFJ1e1k8H9utruk84nCjewhEgxIPbFTKlu0AQ8yHlWcD+dqnkC/aVz3CdhR96RXoHm ZLFCvIkEpEav55T4iyk/MQvlV+Nv1/BXX/zd639dCACopUz8N9VkJc7JrZD5AAABhWlDQ1BJQ0Mg cHJvZmlsZQAAeJx9kT1Iw0AcxV9TtaItgnYQcchQnSyIioiTVqEIFUKt0KqDyaUfQpOGJMXFUXAt OPixWHVwcdbVwVUQBD9AXFydFF2kxP8lhRaxHhz34929x907QKgWmWa1jQKabpvJeExMZ1bEwCu6 0YEQptErM8uYlaQEWo6ve/j4ehflWa3P/TlCatZigE8knmGGaROvE09u2gbnfeIwK8gq8TnxiEkX JH7kuuLxG+e8ywLPDJup5BxxmFjMN7HSxKxgasQTxBFV0ylfSHusct7irBXLrH5P/sJgVl9e4jrN QcSxgEVIEKGgjA0UYSNKq06KhSTtx1r4B1y/RC6FXBtg5JhHCRpk1w/+B7+7tXLjY15SMAa0vzjO xxAQ2AVqFcf5Pnac2gngfwau9Ia/VAWmPkmvNLTIEdCzDVxcNzRlD7jcAfqfDNmUXclPU8jlgPcz +qYM0HcLdK16vdX3cfoApKirxA1wcAgM5yl7rcW7O5t7+/dMvb8fcH5yprER1yEAAAAJcEhZcwAA C4kAAAuJATfJy60AAAAHdElNRQfjCwYNOwOj3ICQAAALjElEQVR42u2cf3RT1R3Av/e+pHnpjzQB 2iTtQdqipWkttAlgm3YWC7NaVFRgR2DT1cOBA+IP6DiAqGeDVRG7cZiVTYbiROcGVhwKCpS2YH8J JuCEtIBQOqVJCJC0TZs0ee/d/RHIugLFvP44Fe/nr+TlnpuXvPu53/v9vpugGTMfAwqF0g8w/Qoo FGoRhdKbsUmJ1CIKhcYiCoVaRKFQqEUUCrWIQqEWUSjUIgqFQi2iUIYKyeB17clbhwhhD62i3/IQ QIAgQH7Wd+aBry6ltIKApQhzhBMIQgwZ2RQ39tOJUm9YoNlwO/mPP/wAALyCQIDIEMbof2coEBJ4 yhOCEUIAhJBHZs/9qVhEoseQgevtmSWLCSGvv/HnQTrbafn36PWZI1TKPtpcdrpMZvOByur+vBHL sjnGrFSdLj5OCwDnW62Wxsbaugav19tPhbojPKcePtwxzgEeAMRf4nxRDIMQEB5dHm/1y+qTP54s 65QPQ5FMXR3VbtcJb+fpbg+DkFzGTlSNzGuxZcWPjlQq3YLgdLtHKxSEEAGgp2O3vkUDS5xWcyOv +i/YtPx7pk2956bNRqiUP5+ajwBVVFaJeyO9PuPB6YUWS+OHH+20Wm0AoNVqco3ZK5cv3bX7M7P5 mLhuESBflPfkjMPucQ7cxbhJd0HUvblRU9bb1vpJN0IYPKgjxXHykcMp/7orrIMV9y4NtQcBUFbO 3VeG/pF6u9Wq1moNk7L7m1cgsPt97Tx/Oxve4e1u+frfe3lhx+/WN5nMl73euXPntU3QPbVy5TyG RQwjkAGcnOGZJYuvHVo9Od9qvenQ+tFYdK08wQ8vl7MqpTIpMfFsc7O4PnNzsgBgY9mmwMgOsK5k zcrVL/VsptVqnl2yWK/PFGeRXp/x0PT739zyttVqe2B6YaouBQBMZvOO8p01dZqF84sAQJxI3RGe 0zMOu8c5oBMjjDgCt8kSl2pXWTzffOD8IBwzBAjqxO5xjlMzvrxj52RZpzyk/p9evGDf3s+nTVlN eozgqXk51xlPEiZ+9G1vv/NeSP1nyqNStOF72i83uNvujNUoN27et+09e1fn2pLfOwVeb9CfGaXc 3u5o5dBvNAO5wPlBM9QPCH0/PouunTlOWJpyjVkGfYZoi1hWDgBWq23F8mUqpdLpcr362h+vbRZw rO9VXx8LuQenFwYVyjVmBY4Hg9ubW7YunF9ksTSJWNqdmW5qT74InUCwgJHEJ0A0o+QJb4i4a7uz XIZkPHB+7Eed0J588cx0U+r23JD6//b0qXnz5qnV6pu2tNvt77//fqjnzxNBjpmZypg4JPlcRjpv T7zQ7QWAf1RX5RcU6GO05uaTMXL5QastwRX+C1XsAA6nP5Vt+gmt6Pqgtq4u15iVmqqD8p397Oq6 8gwIucZsk/lYwMOJ+gn/H6MyKyqrrFbbCUtTrjFbRKBzJduIFxAGjLAf+AgclhOZxyDG4v2m3edr Z3wSBEqJBDAQL3El20Lt3+v1KhQKj8cTPHLkyJFt27bZ7faIiIilS5emp6cHjisUiri4uJNn/hPq irSl2xPNSLKjVXGcb8+ImIe2vPWXrVsTDYYpurTy7dvhqSdwhztaGrbf7ZwWpbqV8yLvpGKQj5LV rUVcV+/0VxLebXwRPA72yMAPU6fT1Wq1xWk1en2G6NQiQN+xqD+kpup2lH90gzXDlQc1dfWzZz4q wiIiIEAEAAmE7xT457Ur8xT5POFnKGenyTPkmG3ynNjieEMAASFEhJCzc7/f31Oh48ePv/zyyyUl JQzDSKXS4uLi4uJig8EQbBxyXgRIJZFWu10Tw6PGSGSLHn8cAO5ITi4t32E713JqlHJ8ejqyO/wI vvN3H3K7bunqgjRCUCZ0G1/sJVJAIUGZgDnPYBV5jh6N096flqrrp0WDF4vitJpg0lVT29CzmGEy HQ2uGPvOdG88lxMARAghBNaPLl0Qs0SKwgiQqdEFU6EAAE57mt5ybCKEYIQBQs4sOI7raVFZWVlp aenatWvtdrtarS4pKSkrK0tNTQ02DrX/Nt6vYCS54Yq3L9sWjIpjeQFjZlRiQmS04ouW5qSFT3Y6 LmFEwhBWM9Lv/b7hVl0YyLuussOlqK0lIBKRhPdSCLW1yA6XDpZFpqMAkKbTsSzbz65WLF+2Yvmy QZ26KiqrKg5UOV0up8tVcaBKdMXvf/MUAAAIRJBhdkHM02FYFhCGJ7xf8PmJX4ZZBaMgQECEQ1dj URC3281xnN1u9/l8drudYRi73R58VUQsIgCVbucIadikyOg3nLawsDCJhGl3uQ5sL4+YcR8/Mprn /ACoXRBOdHc5eB8MIUNdXUBcF1u7xpvzUkCkK+WjqwqxtWuuXekN2GLS6z3R2Jim0xkMmbW19cMw HLVabVqtxmq1/eqXc+QsazId3fj6JgBI06UsmF/k8Xh2lH+sUilbrTZxl5oQQoAghAQiEEIQQoQQ DBgBQoCau7/lAweBQOj3W3rFopEjR3Icp9FobDabRqORSqUsywYbiIhFSolUwUj/+V3z7Nj4Juf5 rfv+/us5j2185dWZ992/KmeK1e3+Uikze9wRGKez4WOk7Ne3dnWhp0iBI0Og0NVKXWOaTqfPyOin RYOExdJo0Otr6+rSdDoASEpMnN07QFXnGrMtlkYRnWMCAroSZTBiCJCASADAAy8BSVX7/ov8JRmS ABGz/OiVF+Xn569atWrDhg0cx3Ec99xzzxUVFQUbiIhFHMdNCo8qX/+HzjEJBVlZL+z5PEOXWt/Q UF1VOQKwIjzyzqjo+7yev7VdOORuGy+PGG4Xd+D30QVEQm0tV54OiUIAYDYf83o98XFalahK9GBT U1c/UT+BZdnt16sxVByoAoC01JSaOjFTgNqUhFiEAfMC7+DsGGEGMxhhjLAUSznCmbuOIAIYMJIj tSlJXCwKkpSUNHfu3NWrV69YsaK0tHTWrFnx8fHBV0XEIowxIeSFZcWzZ83S3j723Xff2bx5S+H0 wlh1rI/na7o67EDiWfnz6jFzVLF5kcPu+g5KpTsYkQBgaBS6Go6aDPrMHKPx0917QlwQelhWru1R ALguWq0GAJwuMTUir9e7a/dnC+cXvbll6+YtW3NyssYmJgDAmeZzZtPRyy7XgvlP7tq9R9w+oIT9 4wkm9tyzvk7fC98Vr4r7bRhmcSANQuAn/os+ByAMEURdk5Cwf3yo/TscjgsXLkRFRfX4KrSLFi0K Pg0Goo6ODhL63oKARZGKKADgeaG1tbW6uqq6upIQEoZxujzir1+bsjt9dxuNT6g0A7t7aVjvXUBc l/zgyiGeEkzmYwZ9ZqouJVSLAkWzZ5cs7nV8XcmaG1UyxEVLAFg4v+i4paniQNW2qzuAcozZd6am 7Nq9R3SBEQtM4r4JAMSee67c+eEnzo9iwmLRlQUebuPavcTDRuKYLxIS92dggQm1//QJGc3NzYJA bpqIO52XM/WG083fh1ZduJrI8TwvkUheeeXVwsJCtVrt9/sRwqMkUr3DVfeVOXfyZA4hydDuoxvq 6oInbx2JHtPXxXadE73FO5h2X/sgyNnmZnHZeaBKZjBkqpR9rRacLpfJdLQ/JTWz+ZjF0pRrzJ49 89HAFNhqtVksjete29DP3aiYZxL2ZoCALvzsHOkmFwRroIpABMIwGMlw7KGkhP0TsMCI2I16qKbh hzeuPFgrbqTyvMAwzKe799Q3NFTs3ysIAsMwAbsKpk2bmpeHMcMMtEEDUl1AA/jfqDe1CLW1DH2A +okQmM4FLJzPbrqUbEVw9W4uIQTByJPa+PoULOBg1WFYEfhlBM8LDIN37fpExsoK7r2X5wWMUeBs BUHAGAc/5sOz5vTd4dikxDNnm4fs/BH9h2HKrccQW0R/60qhUIsoFGoRhUItolCoRRQKhVpEoVCL KBRqEYVCLaJQbjGG8pYrtYhCoRZRKMOA/wJsuKBjeFaxVQAAAABJRU5ErkJggg== "
         id="image283"
         x="-60.892677"
         y="154.09752" />
      <rect
         y="156.33617"
         x="10.750653"
         height="8.5044641"
         width="8.1264877"
         id="rect285"
         style="opacity:1;vector-effect:none;fill:#4f5358;fill-opacity:1;stroke:none;stroke-width:1.32291663;stroke-linecap:butt;stroke-linejoin:miter;stroke-miterlimit:4;stroke-dasharray:none;stroke-dashoffset:0;stroke-opacity:0.57086618" />
    </g>
    <path
       style="fill:#333333;fill-opacity:1;stroke:none;stroke-width:0.02180376;stroke-miterlimit:4;stroke-dasharray:none;stroke-opacity:1"
       d="m 63.753038,33.521097 c -1.99e-4,0 -0.03293,0.004 -0.03318,0.004 -5.65e-4,1.2e-4 -0.01888,0.007 -0.02428,0.009 -0.01079,0.005 -0.01559,0.006 -0.02113,0.01 -0.01091,0.006 -0.02122,0.0148 -0.03325,0.0235 -0.02402,0.0173 -0.05544,0.0392 -0.09289,0.0684 -0.07489,0.0586 -0.174358,0.13999 -0.282971,0.2305 l -0.341081,0.28541 -0.435817,-0.12668 c -0.150239,-0.0439 -0.278427,-0.08 -0.36863,-0.10219 -0.0451,-0.0111 -0.07933,-0.0203 -0.10922,-0.0254 -0.01504,-0.002 -0.02756,-0.001 -0.0484,-0.002 -0.0052,7e-5 -0.01159,-10e-4 -0.01947,-2e-5 -0.0077,3.4e-4 -0.02996,0.008 -0.03059,0.008 -3.47e-4,1.3e-4 -0.02507,0.015 -0.02531,0.0151 -2.5e-4,1.7e-4 -0.03047,0.027 -0.03063,0.0271 -1.54e-4,2.1e-4 -0.02121,0.048 -0.02124,0.0482 -5.8e-5,2.4e-4 -0.0023,0.0513 -0.0024,0.0514 a 0.12649393,0.12649393 0 0 0 -5.55e-4,0.003 c 4.01e-4,0.002 0.0078,0.0221 0.01094,0.0311 0.0031,0.009 0.0055,0.0211 0.01041,0.0342 0.0098,0.0264 0.0243,0.0622 0.0405,0.10432 0.03236,0.0845 0.07391,0.19689 0.120959,0.31607 0.04675,0.11836 0.08951,0.2284 0.121502,0.31294 0.01598,0.0423 0.03126,0.0786 0.0405,0.10432 0.0021,0.005 3.21e-4,0.001 0.0021,0.007 -0.0095,0.0185 -0.025,0.0426 -0.0456,0.0766 -0.04589,0.0759 -0.116077,0.18307 -0.206624,0.315 a 0.12649393,0.12649393 0 0 0 -5.54e-4,0.003 c -0.115539,0.16929 -0.183624,0.27318 -0.224642,0.34436 -0.02058,0.0357 -0.0362,0.0591 -0.04625,0.0992 -0.0024,0.01 -0.0055,0.0197 -0.006,0.0347 -3.06e-4,0.008 0.0018,0.0252 0.002,0.0263 1.61e-4,0.001 0.0074,0.0297 0.0077,0.0306 6.88e-4,0.002 0.04669,0.0592 0.0481,0.0601 6.95e-4,5e-4 0.02841,0.0182 0.0293,0.0183 8.6e-4,3.3e-4 0.01981,0.007 0.02782,0.008 0.0027,4.8e-4 0.02793,-1.8e-4 0.03894,5e-5 0.01109,2.4e-4 0.02367,7.4e-4 0.03894,4e-5 0.03055,-0.001 0.07023,-0.001 0.117274,-0.003 0.09428,-0.004 0.216763,-0.0128 0.347661,-0.0214 0.182795,-0.0118 0.30194,-0.0169 0.372879,-0.017 0.0304,2.3e-4 0.04628,0.003 0.05785,0.003 0.0063,0.006 9.41e-4,0.003 0.0079,0.0113 0.0184,0.0221 0.04238,0.0531 0.0721,0.0903 0.05949,0.0742 0.137665,0.17285 0.218424,0.27765 0.110996,0.14385 0.206516,0.26464 0.261284,0.33044 a 0.12649393,0.12649393 0 0 0 0.07077,0.0414 c 0.0023,0.001 0.005,0.003 0.009,0.005 0.0094,0.003 0.01992,0.0101 0.02095,0.0102 0.0014,4.3e-4 0.05342,0.003 0.05469,0.003 0.0013,-1.5e-4 0.06095,-0.0209 0.06215,-0.0217 6.07e-4,-4.2e-4 0.02268,-0.0214 0.02324,-0.0219 5.66e-4,-6.4e-4 0.01234,-0.0128 0.01639,-0.0199 0.01227,-0.0202 0.01527,-0.0348 0.01817,-0.0487 0.02295,-0.0843 0.06979,-0.26049 0.121097,-0.45951 l 0.113615,-0.4348 0.401388,-0.14526 a 0.12649393,0.12649393 0 0 0 0.0032,5.6e-4 c 0.128603,-0.0465 0.246484,-0.0876 0.335538,-0.12087 0.04453,-0.0166 0.08081,-0.0326 0.108007,-0.0431 0.01365,-0.006 0.02593,-0.0105 0.03476,-0.0135 0.0089,-0.003 0.02682,-0.0137 0.02847,-0.0145 0.0035,-0.003 0.04584,-0.0407 0.04595,-0.0408 1.08e-4,-1.7e-4 0.01708,-0.0617 0.01713,-0.062 1.1e-5,-2.3e-4 -0.0029,-0.0392 -0.003,-0.0394 -8.2e-5,-3e-4 -0.0087,-0.0239 -0.0088,-0.0243 -3.52e-4,-7.1e-4 -0.01171,-0.017 -0.01567,-0.0221 -0.0038,-0.006 -0.0074,-0.0112 -0.01037,-0.0151 -0.01226,-0.0137 -0.02215,-0.0187 -0.03403,-0.0286 -0.02388,-0.0191 -0.05267,-0.043 -0.09167,-0.0709 -0.07796,-0.0561 -0.185548,-0.12956 -0.308165,-0.20861 a 0.12649393,0.12649393 0 0 0 -0.0032,-5.5e-4 l -0.382627,-0.24745 -0.01465,-0.44385 c -0.0052,-0.14029 -0.01291,-0.26858 -0.01872,-0.36344 -0.0028,-0.0473 -0.0067,-0.0861 -0.0094,-0.11526 -0.0012,-0.0152 -0.0012,-0.0276 -0.003,-0.0394 -9.44e-4,-0.005 -7.58e-4,-0.0101 -0.0031,-0.02 -0.0011,-0.005 -0.006,-0.02 -0.0063,-0.0205 -1.21e-4,-3e-4 -0.01244,-0.0214 -0.01257,-0.0216 -5.8e-5,-9e-5 -0.01344,-0.0156 -0.0136,-0.0156 -5.3e-5,-5e-5 -0.01728,-0.0163 -0.02245,-0.0205 -5.6e-5,-4e-5 -0.03923,-0.0167 -0.03931,-0.0167 -7.8e-5,-3e-5 -0.02827,-0.005 -0.02837,-0.005 z"
       id="path1108"
       inkscape:connector-curvature="0" />
    <path
       sodipodi:nodetypes="ccccccccccccccccccccscc"
       style="fill:#ffffff;fill-opacity:1;stroke:none;stroke-width:0.02180376;stroke-miterlimit:4;stroke-dasharray:none;stroke-opacity:1"
       d="m 62.032544,35.421627 c 0.182776,-0.26631 0.284704,-0.43497 0.279354,-0.4622 -0.0049,-0.0236 -0.08524,-0.23741 -0.179108,-0.47512 -0.09386,-0.23774 -0.173068,-0.44486 -0.176004,-0.4603 -0.0027,-0.0171 0.196787,0.0321 0.495286,0.11945 l 0.500632,0.14745 0.391857,-0.32658 c 0.21553,-0.1796 0.397871,-0.32248 0.405234,-0.31753 0.0074,0.005 0.02175,0.23725 0.032,0.51617 l 0.01869,0.50712 0.440514,0.28446 c 0.24229,0.15642 0.429655,0.2905 0.416403,0.29787 -0.01328,0.008 -0.233962,0.0893 -0.490466,0.18197 l -0.466392,0.16856 -0.128929,0.50008 c -0.05114,0.19834 -0.09692,0.3727 -0.119655,0.45633 -0.0096,0.0612 -0.05103,-0.0294 -0.0553,0.008 -0.05244,-0.063 -0.150338,-0.18666 -0.260729,-0.3297 -0.162437,-0.21064 -0.311065,-0.39671 -0.330285,-0.41343 -0.02715,-0.0236 -0.140172,-0.0233 -0.507295,4.4e-4 -0.259805,0.017 -0.490612,0.0276 -0.512968,0.0237 -0.03267,-0.006 0.0169,-0.0891 0.247155,-0.42649 z"
       id="path257"
       inkscape:connector-curvature="0" />
    <g
       inkscape:export-ydpi="150.02838"
       inkscape:export-xdpi="150.02838"
       id="g267"
       transform="matrix(0.01875379,0.04972117,-0.04972117,0.01875379,47.587941,-50.779263)">
      <g
         id="g265"
         transform="matrix(-1.7104986,0,0,1.7104986,2358.8078,162.86467)">
        <path
           style="color:#000000;font-style:normal;font-variant:normal;font-weight:normal;font-stretch:normal;font-size:medium;line-height:normal;font-family:sans-serif;font-variant-ligatures:normal;font-variant-position:normal;font-variant-caps:normal;font-variant-numeric:normal;font-variant-alternates:normal;font-feature-settings:normal;text-indent:0;text-align:start;text-decoration:none;text-decoration-line:none;text-decoration-style:solid;text-decoration-color:#000000;letter-spacing:normal;word-spacing:normal;text-transform:none;writing-mode:lr-tb;direction:ltr;text-orientation:mixed;dominant-baseline:auto;baseline-shift:baseline;text-anchor:start;white-space:normal;shape-padding:0;clip-rule:nonzero;display:inline;overflow:visible;visibility:visible;opacity:1;isolation:auto;mix-blend-mode:normal;color-interpolation:sRGB;color-interpolation-filters:linearRGB;solid-color:#000000;solid-opacity:1;vector-effect:none;fill:#00d0c0;fill-opacity:1;fill-rule:nonzero;stroke:none;stroke-width:0.3719826;stroke-linecap:butt;stroke-linejoin:miter;stroke-miterlimit:4;stroke-dasharray:none;stroke-dashoffset:0;stroke-opacity:1;color-rendering:auto;image-rendering:auto;shape-rendering:auto;text-rendering:auto;enable-background:accumulate"
           d="m 88.361328,2434.3887 c -0.134748,7e-4 -0.263206,0.04 -0.402344,0.094 -0.33709,0.1293 -0.677917,0.3922 -1.027343,0.7442 l 0.820312,0.8437 c 0.143494,-0.1611 0.275709,-0.2917 0.376953,-0.3672 0.05595,-0.041 0.06841,-0.042 0.09766,-0.057 0.01218,0.02 0.0598,0.067 0.06641,0.3086 0.226008,1.3343 0.359902,2.9745 -0.679688,5.1816 -1.039589,2.2072 -2.175544,3.5192 -3.386719,3.7266 -0.12201,-0.043 -0.153803,-0.058 -0.273432,-0.1034 -0.119629,-0.045 -0.740984,0.4076 -1.148437,1.1054 l -2.060547,4.0977 c -0.330026,0.6562 -0.19329,1.3872 0.30664,1.6387 l 0.07422,0.037 c 0.49993,0.2514 1.168022,-0.074 1.498047,-0.7305 l 1.559806,-3.1012 c 0.144697,-0.305 -0.184775,-1.3597 -0.282462,-1.7718 3.766046,1.3335 8.120135,2.7611 10.693359,4.8593 l 0.302734,-0.625 c 0.629613,-1.2916 0.991355,-3.3976 0.91211,-5.1582 -0.04153,-0.9228 -0.259364,-2.0107 -0.585938,-3.0957 -0.326582,-1.085 -0.761995,-2.1599 -1.261718,-2.9765 -1.14277,-1.8672 -2.919241,-3.4505 -4.712891,-4.3262 -0.360326,-0.176 -0.559337,-0.2712 -0.75,-0.3086 -0.04767,-0.011 -0.0918,-0.016 -0.136719,-0.016 z"
           transform="matrix(-1.0272581,-2.7235282,-2.7235282,1.0272581,7159.6008,-2205.0474)"
           id="path263"
           inkscape:connector-curvature="0"
           sodipodi:nodetypes="ccccccccczcccccccccccccccc" />
      </g>
    </g>
    <g
       id="g271"
       transform="matrix(1.3642801,-0.06754529,0.08523977,1.3832098,-21.867868,428.26378)" />
    <path
       style="color:#000000;clip-rule:nonzero;display:inline;overflow:visible;visibility:visible;opacity:1;isolation:auto;mix-blend-mode:normal;color-interpolation:sRGB;color-interpolation-filters:linearRGB;solid-color:#000000;solid-opacity:1;vector-effect:none;fill:#333333;fill-opacity:1;fill-rule:nonzero;stroke:none;stroke-width:0.11612424;stroke-linecap:butt;stroke-linejoin:round;stroke-miterlimit:4;stroke-dasharray:none;stroke-dashoffset:0;stroke-opacity:1;marker:none;marker-start:none;marker-mid:none;marker-end:none;paint-order:normal;color-rendering:auto;image-rendering:auto;shape-rendering:auto;text-rendering:auto;enable-background:accumulate"
       d="m 61.240755,33.123967 c -0.25219,0.008 -0.495545,0.0358 -0.697266,0.0977 a 0.13333544,0.13333544 0 0 0 -0.09375,0.13477 0.13333544,0.13333544 0 0 0 -0.01758,0.12304 0.13333544,0.13333544 0 0 0 0.02539,0.14844 c 0.152861,0.15763 0.455112,0.65205 0.699219,1.0918 0.244106,0.43974 0.443359,0.83398 0.443359,0.83398 a 0.13333544,0.13333544 0 0 0 0.246094,-0.0195 l 0.08008,-0.25 a 0.13333544,0.13333544 0 0 0 -0.0098,-0.10547 c 0,0 -0.01149,-0.0172 -0.01172,-0.0176 a 0.13333544,0.13333544 0 0 0 0.07031,-0.0703 l 0.07226,-0.16992 a 0.13333544,0.13333544 0 0 0 -0.01367,-0.12891 c 0,0 -0.169972,-0.24173 -0.40625,-0.52343 -0.218771,-0.26083 -0.49194,-0.54757 -0.761719,-0.73438 0.251863,0.035 0.515754,0.0723 0.792969,0.14649 0.378226,0.10123 0.728672,0.22936 0.824218,0.2871 a 0.13333544,0.13333544 0 0 0 0.183594,-0.0449 l 0.285156,-0.47656 a 0.13333544,0.13333544 0 0 0 -0.09375,-0.19922 c 0,0 -0.386542,-0.0658 -0.865234,-0.10156 -0.239346,-0.0179 -0.499763,-0.0292 -0.751953,-0.0215 z"
       id="path1133"
       inkscape:connector-curvature="0" />
    <path
       style="color:#000000;clip-rule:nonzero;display:inline;overflow:visible;visibility:visible;opacity:1;isolation:auto;mix-blend-mode:normal;color-interpolation:sRGB;color-interpolation-filters:linearRGB;solid-color:#000000;solid-opacity:1;vector-effect:none;fill:#ffffff;fill-opacity:1;fill-rule:nonzero;stroke:none;stroke-width:0.11612424;stroke-linecap:butt;stroke-linejoin:round;stroke-miterlimit:4;stroke-dasharray:none;stroke-dashoffset:0;stroke-opacity:1;marker:none;marker-start:none;marker-mid:none;marker-end:none;paint-order:normal;color-rendering:auto;image-rendering:auto;shape-rendering:auto;text-rendering:auto;enable-background:accumulate"
       d="m 60.582328,33.348497 c 0.600875,0.0295 1.70348,0.34546 1.968286,0.5055 l 0.285119,-0.47656 c 0,0 -1.523058,-0.2534 -2.253322,-0.0295 z m 1.270324,1.68991 0.07188,-0.17068 c 0,0 -0.787203,-1.27068 -1.338853,-1.42698 -0.0094,-0.003 -0.01895,-0.006 -0.0286,-0.007 0.04016,0.0254 0.07017,0.0401 0.105025,0.0735 0.430364,0.41201 0.858938,0.98118 1.190545,1.5314 z m -1.299062,-1.50516 c 0.367465,0.37893 1.165949,1.96025 1.165949,1.96025 l 0.08064,-0.25065 c 0,0 -0.761609,-1.40213 -1.246595,-1.7096 z"
       id="path273"
       inkscape:connector-curvature="0"
       sodipodi:nodetypes="cccccccccscccccc" />
    <g
       id="g1213"
       inkscape:export-xdpi="96"
       inkscape:export-ydpi="96">
      <path
         inkscape:connector-curvature="0"
         id="path1152"
         d="m 31.947964,47.552747 c -1.99e-4,0 -0.03293,0.004 -0.03318,0.004 -5.65e-4,1.2e-4 -0.01888,0.007 -0.02428,0.009 -0.01079,0.005 -0.01559,0.006 -0.02113,0.01 -0.01091,0.006 -0.02122,0.0148 -0.03325,0.0235 -0.02402,0.0173 -0.05544,0.0392 -0.09289,0.0684 -0.07489,0.0586 -0.174358,0.13999 -0.282971,0.2305 l -0.341081,0.28541 -0.435817,-0.12668 c -0.150239,-0.0439 -0.278427,-0.08 -0.36863,-0.10219 -0.0451,-0.0111 -0.07933,-0.0203 -0.10922,-0.0254 -0.01504,-0.002 -0.02756,-0.001 -0.0484,-0.002 -0.0052,7e-5 -0.01159,-10e-4 -0.01947,-2e-5 -0.0077,3.4e-4 -0.02996,0.008 -0.03059,0.008 -3.47e-4,1.3e-4 -0.02507,0.015 -0.02531,0.0151 -2.5e-4,1.7e-4 -0.03047,0.027 -0.03063,0.0271 -1.54e-4,2.1e-4 -0.02121,0.048 -0.02124,0.0482 -5.8e-5,2.4e-4 -0.0023,0.0513 -0.0024,0.0514 a 0.12649393,0.12649393 0 0 0 -5.55e-4,0.003 c 4.01e-4,0.002 0.0078,0.0221 0.01094,0.0311 0.0031,0.009 0.0055,0.0211 0.01041,0.0342 0.0098,0.0264 0.0243,0.0622 0.0405,0.10432 0.03236,0.0845 0.07391,0.19689 0.120959,0.31607 0.04675,0.11836 0.08951,0.2284 0.121502,0.31294 0.01598,0.0423 0.03126,0.0786 0.0405,0.10432 0.0021,0.005 3.21e-4,0.001 0.0021,0.007 -0.0095,0.0185 -0.025,0.0426 -0.0456,0.0766 -0.04589,0.0759 -0.116077,0.18307 -0.206624,0.315 a 0.12649393,0.12649393 0 0 0 -5.54e-4,0.003 c -0.115539,0.16929 -0.183624,0.27318 -0.224642,0.34436 -0.02058,0.0357 -0.0362,0.0591 -0.04625,0.0992 -0.0024,0.01 -0.0055,0.0197 -0.006,0.0347 -3.06e-4,0.008 0.0018,0.0252 0.002,0.0263 1.61e-4,0.001 0.0074,0.0297 0.0077,0.0306 6.88e-4,0.002 0.04669,0.0592 0.0481,0.0601 6.95e-4,5e-4 0.02841,0.0182 0.0293,0.0183 8.6e-4,3.3e-4 0.01981,0.007 0.02782,0.008 0.0027,4.8e-4 0.02793,-1.8e-4 0.03894,5e-5 0.01109,2.4e-4 0.02367,7.4e-4 0.03894,4e-5 0.03055,-10e-4 0.07023,-10e-4 0.117274,-0.003 0.09428,-0.004 0.216763,-0.0128 0.347661,-0.0214 0.182795,-0.0118 0.30194,-0.0169 0.372879,-0.017 0.0304,2.3e-4 0.04628,0.003 0.05785,0.003 0.0063,0.006 9.41e-4,0.003 0.0079,0.0113 0.0184,0.0221 0.04238,0.0531 0.0721,0.0903 0.05949,0.0742 0.137665,0.17285 0.218424,0.27765 0.110996,0.14385 0.206516,0.26464 0.261284,0.33044 a 0.12649393,0.12649393 0 0 0 0.07077,0.0414 c 0.0023,10e-4 0.005,0.003 0.009,0.005 0.0094,0.003 0.01992,0.0101 0.02095,0.0102 0.0014,4.3e-4 0.05342,0.003 0.05469,0.003 0.0013,-1.5e-4 0.06095,-0.0209 0.06215,-0.0217 6.07e-4,-4.2e-4 0.02268,-0.0214 0.02324,-0.0219 5.66e-4,-6.4e-4 0.01234,-0.0128 0.01639,-0.0199 0.01227,-0.0202 0.01527,-0.0348 0.01817,-0.0487 0.02295,-0.0843 0.06979,-0.26049 0.121097,-0.45951 l 0.113615,-0.4348 0.401388,-0.14526 a 0.12649393,0.12649393 0 0 0 0.0032,5.6e-4 c 0.128603,-0.0465 0.246484,-0.0876 0.335538,-0.12087 0.04453,-0.0166 0.08081,-0.0326 0.108007,-0.0431 0.01365,-0.006 0.02593,-0.0105 0.03476,-0.0135 0.0089,-0.003 0.02682,-0.0137 0.02847,-0.0145 0.0035,-0.003 0.04584,-0.0407 0.04595,-0.0408 1.08e-4,-1.7e-4 0.01708,-0.0617 0.01713,-0.062 1.1e-5,-2.3e-4 -0.0029,-0.0392 -0.003,-0.0394 -8.2e-5,-3e-4 -0.0087,-0.0239 -0.0088,-0.0243 -3.52e-4,-7.1e-4 -0.01171,-0.017 -0.01567,-0.0221 -0.0038,-0.006 -0.0074,-0.0112 -0.01037,-0.0151 -0.01226,-0.0137 -0.02215,-0.0187 -0.03403,-0.0286 -0.02388,-0.0191 -0.05267,-0.043 -0.09167,-0.0709 -0.07796,-0.0561 -0.185548,-0.12956 -0.308165,-0.20861 a 0.12649393,0.12649393 0 0 0 -0.0032,-5.5e-4 l -0.382627,-0.24745 -0.01465,-0.44385 c -0.0052,-0.14029 -0.01291,-0.26858 -0.01872,-0.36344 -0.0028,-0.0473 -0.0067,-0.0861 -0.0094,-0.11526 -0.0012,-0.0152 -0.0012,-0.0276 -0.003,-0.0394 -9.44e-4,-0.005 -7.58e-4,-0.0101 -0.0031,-0.02 -0.0011,-0.005 -0.006,-0.02 -0.0063,-0.0205 -1.21e-4,-3e-4 -0.01244,-0.0214 -0.01257,-0.0216 -5.8e-5,-9e-5 -0.01344,-0.0156 -0.0136,-0.0156 -5.3e-5,-5e-5 -0.01728,-0.0163 -0.02245,-0.0205 -5.6e-5,-4e-5 -0.03923,-0.0167 -0.03931,-0.0167 -7.8e-5,-3e-5 -0.02827,-0.005 -0.02837,-0.005 z"
         style="fill:#333333;fill-opacity:1;stroke:none;stroke-width:0.02180376;stroke-miterlimit:4;stroke-dasharray:none;stroke-opacity:1" />
      <path
         inkscape:connector-curvature="0"
         id="path1154"
         d="m 30.22747,49.453277 c 0.182776,-0.26631 0.284704,-0.43497 0.279354,-0.4622 -0.0049,-0.0236 -0.08524,-0.23741 -0.179108,-0.47512 -0.09386,-0.23774 -0.173068,-0.44486 -0.176004,-0.4603 -0.0027,-0.0171 0.196787,0.0321 0.495286,0.11945 l 0.500632,0.14745 0.391857,-0.32658 c 0.21553,-0.1796 0.397871,-0.32248 0.405234,-0.31753 0.0074,0.005 0.02175,0.23725 0.032,0.51617 l 0.01869,0.50712 0.440514,0.28446 c 0.24229,0.15642 0.429655,0.2905 0.416403,0.29787 -0.01328,0.008 -0.233962,0.0893 -0.490466,0.18197 l -0.466392,0.16856 -0.128929,0.50008 c -0.05114,0.19834 -0.09692,0.3727 -0.119655,0.45633 -0.0096,0.0612 -0.05103,-0.0294 -0.0553,0.008 -0.05244,-0.063 -0.150338,-0.18666 -0.260729,-0.3297 -0.162437,-0.21064 -0.311065,-0.39671 -0.330285,-0.41343 -0.02715,-0.0236 -0.140172,-0.0233 -0.507295,4.4e-4 -0.259805,0.017 -0.490612,0.0276 -0.512968,0.0237 -0.03267,-0.006 0.0169,-0.0891 0.247155,-0.42649 z"
         style="fill:#ffffff;fill-opacity:1;stroke:none;stroke-width:0.02180376;stroke-miterlimit:4;stroke-dasharray:none;stroke-opacity:1"
         sodipodi:nodetypes="ccccccccccccccccccccscc" />
      <g
         transform="matrix(0.01875379,0.04972117,-0.04972117,0.01875379,15.782867,-36.747613)"
         id="g1160"
         inkscape:export-xdpi="150.02838"
         inkscape:export-ydpi="150.02838">
        <g
           transform="matrix(-1.7104986,0,0,1.7104986,2358.8078,162.86467)"
           id="g1158">
          <path
             sodipodi:nodetypes="ccccccccczcccccccccccccccc"
             inkscape:connector-curvature="0"
             id="path1156"
             transform="matrix(-1.0272581,-2.7235282,-2.7235282,1.0272581,7159.6008,-2205.0474)"
             d="m 88.361328,2434.3887 c -0.134748,7e-4 -0.263206,0.04 -0.402344,0.094 -0.33709,0.1293 -0.677917,0.3922 -1.027343,0.7442 l 0.820312,0.8437 c 0.143494,-0.1611 0.275709,-0.2917 0.376953,-0.3672 0.05595,-0.041 0.06841,-0.042 0.09766,-0.057 0.01218,0.02 0.0598,0.067 0.06641,0.3086 0.226008,1.3343 0.359902,2.9745 -0.679688,5.1816 -1.039589,2.2072 -2.175544,3.5192 -3.386719,3.7266 -0.12201,-0.043 -0.153803,-0.058 -0.273432,-0.1034 -0.119629,-0.045 -0.740984,0.4076 -1.148437,1.1054 l -2.060547,4.0977 c -0.330026,0.6562 -0.19329,1.3872 0.30664,1.6387 l 0.07422,0.037 c 0.49993,0.2514 1.168022,-0.074 1.498047,-0.7305 l 1.559806,-3.1012 c 0.144697,-0.305 -0.184775,-1.3597 -0.282462,-1.7718 3.766046,1.3335 8.120135,2.7611 10.693359,4.8593 l 0.302734,-0.625 c 0.629613,-1.2916 0.991355,-3.3976 0.91211,-5.1582 -0.04153,-0.9228 -0.259364,-2.0107 -0.585938,-3.0957 -0.326582,-1.085 -0.761995,-2.1599 -1.261718,-2.9765 -1.14277,-1.8672 -2.919241,-3.4505 -4.712891,-4.3262 -0.360326,-0.176 -0.559337,-0.2712 -0.75,-0.3086 -0.04767,-0.011 -0.0918,-0.016 -0.136719,-0.016 z"
             style="color:#000000;font-style:normal;font-variant:normal;font-weight:normal;font-stretch:normal;font-size:medium;line-height:normal;font-family:sans-serif;font-variant-ligatures:normal;font-variant-position:normal;font-variant-caps:normal;font-variant-numeric:normal;font-variant-alternates:normal;font-feature-settings:normal;text-indent:0;text-align:start;text-decoration:none;text-decoration-line:none;text-decoration-style:solid;text-decoration-color:#000000;letter-spacing:normal;word-spacing:normal;text-transform:none;writing-mode:lr-tb;direction:ltr;text-orientation:mixed;dominant-baseline:auto;baseline-shift:baseline;text-anchor:start;white-space:normal;shape-padding:0;clip-rule:nonzero;display:inline;overflow:visible;visibility:visible;opacity:1;isolation:auto;mix-blend-mode:normal;color-interpolation:sRGB;color-interpolation-filters:linearRGB;solid-color:#000000;solid-opacity:1;vector-effect:none;fill:#00d0c0;fill-opacity:1;fill-rule:nonzero;stroke:none;stroke-width:0.3719826;stroke-linecap:butt;stroke-linejoin:miter;stroke-miterlimit:4;stroke-dasharray:none;stroke-dashoffset:0;stroke-opacity:1;color-rendering:auto;image-rendering:auto;shape-rendering:auto;text-rendering:auto;enable-background:accumulate" />
        </g>
      </g>
      <path
         inkscape:connector-curvature="0"
         id="path1162"
         d="m 29.435681,47.155617 c -0.25219,0.008 -0.495545,0.0358 -0.697266,0.0977 a 0.13333544,0.13333544 0 0 0 -0.09375,0.13477 0.13333544,0.13333544 0 0 0 -0.01758,0.12304 0.13333544,0.13333544 0 0 0 0.02539,0.14844 c 0.152861,0.15763 0.455112,0.65205 0.699219,1.0918 0.244106,0.43974 0.443359,0.83398 0.443359,0.83398 a 0.13333544,0.13333544 0 0 0 0.246094,-0.0195 l 0.08008,-0.25 a 0.13333544,0.13333544 0 0 0 -0.0098,-0.10547 c 0,0 -0.01149,-0.0172 -0.01172,-0.0176 a 0.13333544,0.13333544 0 0 0 0.07031,-0.0703 l 0.07226,-0.16992 a 0.13333544,0.13333544 0 0 0 -0.01367,-0.12891 c 0,0 -0.169972,-0.24173 -0.40625,-0.52343 -0.218771,-0.26083 -0.49194,-0.54757 -0.761719,-0.73438 0.251863,0.035 0.515754,0.0723 0.792969,0.14649 0.378226,0.10123 0.728672,0.22936 0.824218,0.2871 a 0.13333544,0.13333544 0 0 0 0.183594,-0.0449 l 0.285156,-0.47656 a 0.13333544,0.13333544 0 0 0 -0.09375,-0.19922 c 0,0 -0.386542,-0.0658 -0.865234,-0.10156 -0.239346,-0.0179 -0.499763,-0.0292 -0.751953,-0.0215 z"
         style="color:#000000;clip-rule:nonzero;display:inline;overflow:visible;visibility:visible;opacity:1;isolation:auto;mix-blend-mode:normal;color-interpolation:sRGB;color-interpolation-filters:linearRGB;solid-color:#000000;solid-opacity:1;vector-effect:none;fill:#333333;fill-opacity:1;fill-rule:nonzero;stroke:none;stroke-width:0.11612424;stroke-linecap:butt;stroke-linejoin:round;stroke-miterlimit:4;stroke-dasharray:none;stroke-dashoffset:0;stroke-opacity:1;marker:none;marker-start:none;marker-mid:none;marker-end:none;paint-order:normal;color-rendering:auto;image-rendering:auto;shape-rendering:auto;text-rendering:auto;enable-background:accumulate" />
      <path
         sodipodi:nodetypes="cccccccccscccccc"
         inkscape:connector-curvature="0"
         id="path1164"
         d="m 28.777254,47.380147 c 0.600875,0.0295 1.70348,0.34546 1.968286,0.5055 l 0.285119,-0.47656 c 0,0 -1.523058,-0.2534 -2.253322,-0.0295 z m 1.270324,1.68991 0.07188,-0.17068 c 0,0 -0.787203,-1.27068 -1.338853,-1.42698 -0.0094,-0.003 -0.01895,-0.006 -0.0286,-0.007 0.04016,0.0254 0.07017,0.0401 0.105025,0.0735 0.430364,0.41201 0.858938,0.98118 1.190545,1.5314 z m -1.299062,-1.50516 c 0.367465,0.37893 1.165949,1.96025 1.165949,1.96025 l 0.08064,-0.25065 c 0,0 -0.761609,-1.40213 -1.246595,-1.7096 z"
         style="color:#000000;clip-rule:nonzero;display:inline;overflow:visible;visibility:visible;opacity:1;isolation:auto;mix-blend-mode:normal;color-interpolation:sRGB;color-interpolation-filters:linearRGB;solid-color:#000000;solid-opacity:1;vector-effect:none;fill:#ffffff;fill-opacity:1;fill-rule:nonzero;stroke:none;stroke-width:0.11612424;stroke-linecap:butt;stroke-linejoin:round;stroke-miterlimit:4;stroke-dasharray:none;stroke-dashoffset:0;stroke-opacity:1;marker:none;marker-start:none;marker-mid:none;marker-end:none;paint-order:normal;color-rendering:auto;image-rendering:auto;shape-rendering:auto;text-rendering:auto;enable-background:accumulate" />
    </g>
    <g
       id="g1204"
       inkscape:export-filename="favicon-metapress-v2-02-B.png"
       inkscape:export-xdpi="96"
       inkscape:export-ydpi="96">
      <path
         style="fill:#333333;fill-opacity:1;stroke:none;stroke-width:0.02180376;stroke-miterlimit:4;stroke-dasharray:none;stroke-opacity:1"
         d="m 40.741132,47.552747 c -1.99e-4,0 -0.03293,0.004 -0.03318,0.004 -5.65e-4,1.2e-4 -0.01888,0.007 -0.02428,0.009 -0.01079,0.005 -0.01559,0.006 -0.02113,0.01 -0.01091,0.006 -0.02122,0.0148 -0.03325,0.0235 -0.02402,0.0173 -0.05544,0.0392 -0.09289,0.0684 -0.07489,0.0586 -0.174358,0.13999 -0.282971,0.2305 l -0.341081,0.28541 -0.435817,-0.12668 c -0.150239,-0.0439 -0.278427,-0.08 -0.36863,-0.10219 -0.0451,-0.0111 -0.07933,-0.0203 -0.10922,-0.0254 -0.01504,-0.002 -0.02756,-0.001 -0.0484,-0.002 -0.0052,7e-5 -0.01159,-10e-4 -0.01947,-2e-5 -0.0077,3.4e-4 -0.02996,0.008 -0.03059,0.008 -3.47e-4,1.3e-4 -0.02507,0.015 -0.02531,0.0151 -2.5e-4,1.7e-4 -0.03047,0.027 -0.03063,0.0271 -1.54e-4,2.1e-4 -0.02121,0.048 -0.02124,0.0482 -5.8e-5,2.4e-4 -0.0023,0.0513 -0.0024,0.0514 a 0.12649393,0.12649393 0 0 0 -5.55e-4,0.003 c 4.01e-4,0.002 0.0078,0.0221 0.01094,0.0311 0.0031,0.009 0.0055,0.0211 0.01041,0.0342 0.0098,0.0264 0.0243,0.0622 0.0405,0.10432 0.03236,0.0845 0.07391,0.19689 0.120959,0.31607 0.04675,0.11836 0.08951,0.2284 0.121502,0.31294 0.01598,0.0423 0.03126,0.0786 0.0405,0.10432 0.0021,0.005 3.21e-4,0.001 0.0021,0.007 -0.0095,0.0185 -0.025,0.0426 -0.0456,0.0766 -0.04589,0.0759 -0.116077,0.18307 -0.206624,0.315 a 0.12649393,0.12649393 0 0 0 -5.54e-4,0.003 c -0.115539,0.16929 -0.183624,0.27318 -0.224642,0.34436 -0.02058,0.0357 -0.0362,0.0591 -0.04625,0.0992 -0.0024,0.01 -0.0055,0.0197 -0.006,0.0347 -3.06e-4,0.008 0.0018,0.0252 0.002,0.0263 1.61e-4,0.001 0.0074,0.0297 0.0077,0.0306 6.88e-4,0.002 0.04669,0.0592 0.0481,0.0601 6.95e-4,5e-4 0.02841,0.0182 0.0293,0.0183 8.6e-4,3.3e-4 0.01981,0.007 0.02782,0.008 0.0027,4.8e-4 0.02793,-1.8e-4 0.03894,5e-5 0.01109,2.4e-4 0.02367,7.4e-4 0.03894,4e-5 0.03055,-10e-4 0.07023,-10e-4 0.117274,-0.003 0.09428,-0.004 0.216763,-0.0128 0.347661,-0.0214 0.182795,-0.0118 0.30194,-0.0169 0.372879,-0.017 0.0304,2.3e-4 0.04628,0.003 0.05785,0.003 0.0063,0.006 9.41e-4,0.003 0.0079,0.0113 0.0184,0.0221 0.04238,0.0531 0.0721,0.0903 0.05949,0.0742 0.137665,0.17285 0.218424,0.27765 0.110996,0.14385 0.206516,0.26464 0.261284,0.33044 a 0.12649393,0.12649393 0 0 0 0.07077,0.0414 c 0.0023,10e-4 0.005,0.003 0.009,0.005 0.0094,0.003 0.01992,0.0101 0.02095,0.0102 0.0014,4.3e-4 0.05342,0.003 0.05469,0.003 0.0013,-1.5e-4 0.06095,-0.0209 0.06215,-0.0217 6.07e-4,-4.2e-4 0.02268,-0.0214 0.02324,-0.0219 5.66e-4,-6.4e-4 0.01234,-0.0128 0.01639,-0.0199 0.01227,-0.0202 0.01527,-0.0348 0.01817,-0.0487 0.02295,-0.0843 0.06979,-0.26049 0.121097,-0.45951 l 0.113615,-0.4348 0.401388,-0.14526 a 0.12649393,0.12649393 0 0 0 0.0032,5.6e-4 c 0.128603,-0.0465 0.246484,-0.0876 0.335538,-0.12087 0.04453,-0.0166 0.08081,-0.0326 0.108007,-0.0431 0.01365,-0.006 0.02593,-0.0105 0.03476,-0.0135 0.0089,-0.003 0.02682,-0.0137 0.02847,-0.0145 0.0035,-0.003 0.04584,-0.0407 0.04595,-0.0408 1.08e-4,-1.7e-4 0.01708,-0.0617 0.01713,-0.062 1.1e-5,-2.3e-4 -0.0029,-0.0392 -0.003,-0.0394 -8.2e-5,-3e-4 -0.0087,-0.0239 -0.0088,-0.0243 -3.52e-4,-7.1e-4 -0.01171,-0.017 -0.01567,-0.0221 -0.0038,-0.006 -0.0074,-0.0112 -0.01037,-0.0151 -0.01226,-0.0137 -0.02215,-0.0187 -0.03403,-0.0286 -0.02388,-0.0191 -0.05267,-0.043 -0.09167,-0.0709 -0.07796,-0.0561 -0.185548,-0.12956 -0.308165,-0.20861 a 0.12649393,0.12649393 0 0 0 -0.0032,-5.5e-4 l -0.382627,-0.24745 -0.01465,-0.44385 c -0.0052,-0.14029 -0.01291,-0.26858 -0.01872,-0.36344 -0.0028,-0.0473 -0.0067,-0.0861 -0.0094,-0.11526 -0.0012,-0.0152 -0.0012,-0.0276 -0.003,-0.0394 -9.44e-4,-0.005 -7.58e-4,-0.0101 -0.0031,-0.02 -0.0011,-0.005 -0.006,-0.02 -0.0063,-0.0205 -1.21e-4,-3e-4 -0.01244,-0.0214 -0.01257,-0.0216 -5.8e-5,-9e-5 -0.01344,-0.0156 -0.0136,-0.0156 -5.3e-5,-5e-5 -0.01728,-0.0163 -0.02245,-0.0205 -5.6e-5,-4e-5 -0.03923,-0.0167 -0.03931,-0.0167 -7.8e-5,-3e-5 -0.02827,-0.005 -0.02837,-0.005 z"
         id="path1138"
         inkscape:connector-curvature="0" />
      <path
         sodipodi:nodetypes="ccccccccccccccccccccscc"
         style="fill:#ffffff;fill-opacity:1;stroke:none;stroke-width:0.02180376;stroke-miterlimit:4;stroke-dasharray:none;stroke-opacity:1"
         d="m 39.020638,49.453277 c 0.182776,-0.26631 0.284704,-0.43497 0.279354,-0.4622 -0.0049,-0.0236 -0.08524,-0.23741 -0.179108,-0.47512 -0.09386,-0.23774 -0.173068,-0.44486 -0.176004,-0.4603 -0.0027,-0.0171 0.196787,0.0321 0.495286,0.11945 l 0.500632,0.14745 0.391857,-0.32658 c 0.21553,-0.1796 0.397871,-0.32248 0.405234,-0.31753 0.0074,0.005 0.02175,0.23725 0.032,0.51617 l 0.01869,0.50712 0.440514,0.28446 c 0.24229,0.15642 0.429655,0.2905 0.416403,0.29787 -0.01328,0.008 -0.233962,0.0893 -0.490466,0.18197 l -0.466392,0.16856 -0.128929,0.50008 c -0.05114,0.19834 -0.09692,0.3727 -0.119655,0.45633 -0.0096,0.0612 -0.05103,-0.0294 -0.0553,0.008 -0.05244,-0.063 -0.150338,-0.18666 -0.260729,-0.3297 -0.162437,-0.21064 -0.311065,-0.39671 -0.330285,-0.41343 -0.02715,-0.0236 -0.140172,-0.0233 -0.507295,4.4e-4 -0.259805,0.017 -0.490612,0.0276 -0.512968,0.0237 -0.03267,-0.006 0.0169,-0.0891 0.247155,-0.42649 z"
         id="path1140"
         inkscape:connector-curvature="0" />
      <g
         style="fill:#333333;fill-opacity:1"
         transform="matrix(0.01875379,0.04972117,-0.04972117,0.01875379,24.576035,-36.747613)"
         id="g1170"
         inkscape:export-xdpi="150.02838"
         inkscape:export-ydpi="150.02838">
        <g
           style="fill:#333333;fill-opacity:1"
           transform="matrix(-1.7104986,0,0,1.7104986,2358.8078,162.86467)"
           id="g1168">
          <path
             id="path1166"
             d="m 88.359375,2433.9004 c -0.227315,0 -0.416465,0.065 -0.576172,0.1269 -0.440935,0.1692 -0.821646,0.4771 -1.197265,0.8555 a 0.48816141,0.48816141 0 0 0 -0.0039,0.6836 l 0.820313,0.8438 a 0.48816141,0.48816141 0 0 0 0.443359,0.1386 c 0.162525,1.1893 0.20056,2.5226 -0.673828,4.3789 -0.980669,2.0821 -2.031233,3.202 -2.935547,3.4161 -0.03076,-0.012 -0.05666,-0.021 -0.109375,-0.041 a 0.48816141,0.48816141 0 0 0 -0.002,0 c -0.206301,-0.078 -0.30951,-0.028 -0.388672,-0 -0.07916,0.026 -0.138366,0.057 -0.199219,0.092 -0.121704,0.07 -0.243408,0.1612 -0.373047,0.2754 -0.259277,0.2282 -0.546215,0.5486 -0.78125,0.9511 a 0.48816141,0.48816141 0 0 0 -0.01367,0.027 l -2.060547,4.0976 c -0.209861,0.4173 -0.280646,0.865 -0.203125,1.2793 0.07752,0.4144 0.322952,0.8107 0.726562,1.0137 a 0.48816141,0.48816141 0 0 0 0,0 l 0.07422,0.037 v -0 c 0.40345,0.2029 0.867229,0.1632 1.246094,-0.021 0.378865,-0.1846 0.696407,-0.5083 0.90625,-0.9257 l 1.560547,-3.1016 a 0.48816141,0.48816141 0 0 0 0.0059,-0.01 c 0.113668,-0.2396 0.09126,-0.4115 0.07617,-0.5957 -0.01509,-0.1842 -0.0509,-0.3741 -0.0918,-0.5625 -0.0037,-0.017 -0.0059,-0.026 -0.0098,-0.043 3.556275,1.2539 7.419949,2.6116 9.685547,4.4589 a 0.48816141,0.48816141 0 0 0 0.748047,-0.166 l 0.302735,-0.625 c 0.688918,-1.4132 1.043968,-3.5478 0.960937,-5.3926 -0.0442,-0.9821 -0.27216,-2.1009 -0.607422,-3.2148 -0.335449,-1.1145 -0.779124,-2.2183 -1.3125,-3.0898 -1.196211,-1.9546 -3.026153,-3.59 -4.914062,-4.5118 -0.361641,-0.1766 -0.589855,-0.2925 -0.871094,-0.3476 -0.0779,-0.017 -0.157201,-0.025 -0.230469,-0.025 a 0.48816141,0.48816141 0 0 0 -0.002,0 z"
             style="color:#000000;font-style:normal;font-variant:normal;font-weight:normal;font-stretch:normal;font-size:medium;line-height:normal;font-family:sans-serif;font-variant-ligatures:normal;font-variant-position:normal;font-variant-caps:normal;font-variant-numeric:normal;font-variant-alternates:normal;font-feature-settings:normal;text-indent:0;text-align:start;text-decoration:none;text-decoration-line:none;text-decoration-style:solid;text-decoration-color:#000000;letter-spacing:normal;word-spacing:normal;text-transform:none;writing-mode:lr-tb;direction:ltr;text-orientation:mixed;dominant-baseline:auto;baseline-shift:baseline;text-anchor:start;white-space:normal;shape-padding:0;clip-rule:nonzero;display:inline;overflow:visible;visibility:visible;opacity:1;isolation:auto;mix-blend-mode:normal;color-interpolation:sRGB;color-interpolation-filters:linearRGB;solid-color:#000000;solid-opacity:1;vector-effect:none;fill:#333333;fill-opacity:1;fill-rule:nonzero;stroke:none;stroke-width:0.3719826;stroke-linecap:butt;stroke-linejoin:miter;stroke-miterlimit:4;stroke-dasharray:none;stroke-dashoffset:0;stroke-opacity:1;color-rendering:auto;image-rendering:auto;shape-rendering:auto;text-rendering:auto;enable-background:accumulate"
             transform="matrix(-1.0272581,-2.7235282,-2.7235282,1.0272581,7159.6008,-2205.0474)" />
        </g>
      </g>
      <g
         inkscape:export-ydpi="150.02838"
         inkscape:export-xdpi="150.02838"
         id="g1146"
         transform="matrix(0.01875379,0.04972117,-0.04972117,0.01875379,24.576035,-36.747613)">
        <g
           id="g1144"
           transform="matrix(-1.7104986,0,0,1.7104986,2358.8078,162.86467)">
          <path
             style="color:#000000;font-style:normal;font-variant:normal;font-weight:normal;font-stretch:normal;font-size:medium;line-height:normal;font-family:sans-serif;font-variant-ligatures:normal;font-variant-position:normal;font-variant-caps:normal;font-variant-numeric:normal;font-variant-alternates:normal;font-feature-settings:normal;text-indent:0;text-align:start;text-decoration:none;text-decoration-line:none;text-decoration-style:solid;text-decoration-color:#000000;letter-spacing:normal;word-spacing:normal;text-transform:none;writing-mode:lr-tb;direction:ltr;text-orientation:mixed;dominant-baseline:auto;baseline-shift:baseline;text-anchor:start;white-space:normal;shape-padding:0;clip-rule:nonzero;display:inline;overflow:visible;visibility:visible;opacity:1;isolation:auto;mix-blend-mode:normal;color-interpolation:sRGB;color-interpolation-filters:linearRGB;solid-color:#000000;solid-opacity:1;vector-effect:none;fill:#00d0c0;fill-opacity:1;fill-rule:nonzero;stroke:none;stroke-width:0.3719826;stroke-linecap:butt;stroke-linejoin:miter;stroke-miterlimit:4;stroke-dasharray:none;stroke-dashoffset:0;stroke-opacity:1;color-rendering:auto;image-rendering:auto;shape-rendering:auto;text-rendering:auto;enable-background:accumulate"
             d="m 88.361328,2434.3887 c -0.134748,7e-4 -0.263206,0.04 -0.402344,0.094 -0.33709,0.1293 -0.677917,0.3922 -1.027343,0.7442 l 0.820312,0.8437 c 0.143494,-0.1611 0.275709,-0.2917 0.376953,-0.3672 0.05595,-0.041 0.06841,-0.042 0.09766,-0.057 0.01218,0.02 0.0598,0.067 0.06641,0.3086 0.226008,1.3343 0.359902,2.9745 -0.679688,5.1816 -1.039589,2.2072 -2.175544,3.5192 -3.386719,3.7266 -0.12201,-0.043 -0.153803,-0.058 -0.273432,-0.1034 -0.119629,-0.045 -0.740984,0.4076 -1.148437,1.1054 l -2.060547,4.0977 c -0.330026,0.6562 -0.19329,1.3872 0.30664,1.6387 l 0.07422,0.037 c 0.49993,0.2514 1.168022,-0.074 1.498047,-0.7305 l 1.559806,-3.1012 c 0.144697,-0.305 -0.184775,-1.3597 -0.282462,-1.7718 3.766046,1.3335 8.120135,2.7611 10.693359,4.8593 l 0.302734,-0.625 c 0.629613,-1.2916 0.991355,-3.3976 0.91211,-5.1582 -0.04153,-0.9228 -0.259364,-2.0107 -0.585938,-3.0957 -0.326582,-1.085 -0.761995,-2.1599 -1.261718,-2.9765 -1.14277,-1.8672 -2.919241,-3.4505 -4.712891,-4.3262 -0.360326,-0.176 -0.559337,-0.2712 -0.75,-0.3086 -0.04767,-0.011 -0.0918,-0.016 -0.136719,-0.016 z"
             transform="matrix(-1.0272581,-2.7235282,-2.7235282,1.0272581,7159.6008,-2205.0474)"
             id="path1142"
             inkscape:connector-curvature="0"
             sodipodi:nodetypes="ccccccccczcccccccccccccccc" />
        </g>
      </g>
      <path
         style="color:#000000;clip-rule:nonzero;display:inline;overflow:visible;visibility:visible;opacity:1;isolation:auto;mix-blend-mode:normal;color-interpolation:sRGB;color-interpolation-filters:linearRGB;solid-color:#000000;solid-opacity:1;vector-effect:none;fill:#333333;fill-opacity:1;fill-rule:nonzero;stroke:none;stroke-width:0.11612424;stroke-linecap:butt;stroke-linejoin:round;stroke-miterlimit:4;stroke-dasharray:none;stroke-dashoffset:0;stroke-opacity:1;marker:none;marker-start:none;marker-mid:none;marker-end:none;paint-order:normal;color-rendering:auto;image-rendering:auto;shape-rendering:auto;text-rendering:auto;enable-background:accumulate"
         d="m 38.228849,47.155617 c -0.25219,0.008 -0.495545,0.0358 -0.697266,0.0977 a 0.13333544,0.13333544 0 0 0 -0.09375,0.13477 0.13333544,0.13333544 0 0 0 -0.01758,0.12304 0.13333544,0.13333544 0 0 0 0.02539,0.14844 c 0.152861,0.15763 0.455112,0.65205 0.699219,1.0918 0.244106,0.43974 0.443359,0.83398 0.443359,0.83398 a 0.13333544,0.13333544 0 0 0 0.246094,-0.0195 l 0.08008,-0.25 a 0.13333544,0.13333544 0 0 0 -0.0098,-0.10547 c 0,0 -0.01149,-0.0172 -0.01172,-0.0176 a 0.13333544,0.13333544 0 0 0 0.07031,-0.0703 l 0.07226,-0.16992 a 0.13333544,0.13333544 0 0 0 -0.01367,-0.12891 c 0,0 -0.169972,-0.24173 -0.40625,-0.52343 -0.218771,-0.26083 -0.49194,-0.54757 -0.761719,-0.73438 0.251863,0.035 0.515754,0.0723 0.792969,0.14649 0.378226,0.10123 0.728672,0.22936 0.824218,0.2871 a 0.13333544,0.13333544 0 0 0 0.183594,-0.0449 l 0.285156,-0.47656 a 0.13333544,0.13333544 0 0 0 -0.09375,-0.19922 c 0,0 -0.386542,-0.0658 -0.865234,-0.10156 -0.239346,-0.0179 -0.499763,-0.0292 -0.751953,-0.0215 z"
         id="path1148"
         inkscape:connector-curvature="0" />
      <path
         style="color:#000000;clip-rule:nonzero;display:inline;overflow:visible;visibility:visible;opacity:1;isolation:auto;mix-blend-mode:normal;color-interpolation:sRGB;color-interpolation-filters:linearRGB;solid-color:#000000;solid-opacity:1;vector-effect:none;fill:#ffffff;fill-opacity:1;fill-rule:nonzero;stroke:none;stroke-width:0.11612424;stroke-linecap:butt;stroke-linejoin:round;stroke-miterlimit:4;stroke-dasharray:none;stroke-dashoffset:0;stroke-opacity:1;marker:none;marker-start:none;marker-mid:none;marker-end:none;paint-order:normal;color-rendering:auto;image-rendering:auto;shape-rendering:auto;text-rendering:auto;enable-background:accumulate"
         d="m 37.570422,47.380147 c 0.600875,0.0295 1.70348,0.34546 1.968286,0.5055 l 0.285119,-0.47656 c 0,0 -1.523058,-0.2534 -2.253322,-0.0295 z m 1.270324,1.68991 0.07188,-0.17068 c 0,0 -0.787203,-1.27068 -1.338853,-1.42698 -0.0094,-0.003 -0.01895,-0.006 -0.0286,-0.007 0.04016,0.0254 0.07017,0.0401 0.105025,0.0735 0.430364,0.41201 0.858938,0.98118 1.190545,1.5314 z m -1.299062,-1.50516 c 0.367465,0.37893 1.165949,1.96025 1.165949,1.96025 l 0.08064,-0.25065 c 0,0 -0.761609,-1.40213 -1.246595,-1.7096 z"
         id="path1150"
         inkscape:connector-curvature="0"
         sodipodi:nodetypes="cccccccccscccccc" />
    </g>
  </g>
</svg>
